deg 7110
ad 4043
di 3576
ay 2261
ara 1607
ur 1563
seg 1484
ar 1466
γef 1359
tmurt 1223
at 1155
akken 1029
akk 998
yiwen 977
neγ 973
yimezdaγen 947
γer 931
llan 926
zedγen-tt 922
am 880
yiwet 823
ass 822
ma 818
kan 766
taγiwant 724
aṭas 716
kra 682
yella 676
si 650
useggas 629
tutlayt 585
twilayt 577
maca 565
imi 564
la 559
taddart 557
dγa 520
wid 508
mi 491
nniḍen 481
ayen 475
yerna 471
azal 460
tama 456
tamurt 449
de 441
id 433
tella 430
tamdint 424
win 413
anda 409
yellan 408
yernu 407
daγen 404
ed 403
tizi 394
medden 380
ugafa 371
iseggasen 365
tallit 363
tezga-d 360
gar 349
netta 349
tutlayin 347
leqbayel 343
asmi 339
yal 339
ines 337
ger 332
fransa 329
sin 315
wis 311
yennayer 308
akked 305
deg-s 301
ula 301
tmaziγt 292
taɛrabt 284
isem 283
acu 280
tefrensist 277
temdint 275
wakken 274
ilul 265
sidi 263
ass-a 262
isem-is 259
af 257
γef 252
zik 252
tin 244
ldzayer 242
teqbaylit 241
agi 238
wussan 233
useggwas 232
tesɛa 232
wayen 231
imaziγen 223
ameqran 222
tamaneγt 222
akw 221
awal 219
tamaziγt 218
taggara 217
wezzu 216
acku 214
wenẓul 211
umi 207
snat 205
ama 205
tura 203
nettat 202
armi 201
tuber 200
wamber 198
imezdaγ 198
le 195
ugar 194
fr 193
tγiwant 192
akka 192
fell-as 191
bgayet 191
yuγal 189
xas 188
tuṭṭfa 187
amezwaru 185
tefṛensist 185
waṭas 183
imezdaγen 179
yemmut 177
bisekstil 174
deffir-es 174
aya 173
lezzayer 173
tajumma-nnes 172
en 172
llant 169
γer 169
amek 169
fuṛaṛ 167
imkuẓen 166
γγaren-as 165
tira 164
qqaren 164
wass 164
sγur 162
tmura 162
mačči 161
lqern 161
amezruy 158
tefriqt 158
nsen 157
wa 157
taqbaylit 157
wawal 156
tefransist 155
dzayer 155
les 151
mgal 151
nezmer 149
ulac 149
tamanaγt 149
ihi 149
yikilumitren 148
ɛin 147
lḥal 146
yiri 144
umaḍal 144
belli 142
is 142
mazal 141
ben 140
tunes 139
yesɛa 138
abrid 137
γas 137
akk-n 136
ddaw 136
dujamber 135
yili 135
yezmer 134
tafrensist 134
tis 132
dakk-n 132
yiseggasen 132
tamaneγt-nnes 130
merruk 130
yura 129
nni 129
et 128
tesdawit 128
illa 128
utaram 128
wakal 127
km 126
iman-is 126
amaziγ 125
tafṛensist 125
ccna 125
d'taddart 125
tudert 125
uqbel 124
aseggas 124
yeddukklen 124
des 124
ameqqran 123
tuγal 121
yuγ 120
meqqren 119
ala 118
yesɛan 118
amur 118
ilaq 118
γur-es 118
wegmuḍ 117
din 117
tamezwarut 114
atg 114
el 114
akal 112
γiwant 111
yiwunak 108
as 108
tudrin 108
baba-s 107
naf 107
yebrir 107
sliman 106
waya 106
ismawen-is 106
deg-sen 106
d-yezgan 105
cwiṭ 103
agemmay 103
umata 103
gar-asen 102
diγ 101
te 101
yemdanen 101
ig 101
ccix 100
umezruy 99
lweqt 99
tikkelt 98
ttmeslayen 98
temnaṭ 98
yisem 97
zdat 97
daγen 97
dakken 96
paris 95
tameqrant 95
meγres 94
yessefk 93
un 93
lla 92
deffir 92
iwakken 92
aselway 91
niḍen 91
timura 90
yunyu 90
yugurten 90
usegwas 90
yekka-d 90
γuct 90
isṭunya 90
agellid 90
iderman 89
aḥric 89
udabu 89
nnig 88
tala 88
yilel 88
ak 88
ccerq 87
amedya 87
wiyaḍ 87
yemma-s 87
ladγa 86
du 85
dinna 85
ahat 84
turuft 84
idurar 83
yebda 83
tebda 83
leqdic 83
bu 83
amenzu 82
nneγ 82
waman 81
zemren 81
anamek 81
tmiwa 81
bdan 81
almi 80
tarbaɛt 80
adlis 79
wasif 79
asegwas 79
d-ass 79
neγ 79
umalu 79
iseggwasen 78
ufella 78
iqbayliyen 78
axxam 78
tallit-nni 78
qqaren-as 77
lγerb 76
ddunit 76
wemdan 76
mmi-s 75
amdan 75
ddula 75
adrar 75
yedles 75
ɛisa 74
tazwara 74
sakkin 74
tussna 74
argaz 74
tagara 73
sɛan 73
tikli 73
twacult 72
tmurt-a 72
γur-s 72
acḥal 72
uḍar 72
tlemmast 71
tikwal 71
imiren 71
tẓuri 71
merra 70
ledzayer 70
yezga-d 70
akk-d 70
war 70
azwaw 70
imezwura 70
wexxam 70
imeqranen 70
isegwasen 70
alamma 69
maci 69
ay-n 69
tarakalt 69
kanada 69
tifinaγ 68
ta 68
tineṣliyin 68
talemmast 68
tlata 68
bab 68
agrakal 68
wazal 67
sakin 67
yusef 67
lmend 67
ideg 67
tili 67
muḥemmed 67
est 67
tidet 67
rebbi 67
maṣer 67
tmaziγt 66
uzzu 66
inelmaden 66
yulyu 66
yidir 66
tubiret 66
mebla 65
asif 65
uγerbaz 65
tawilayt 65
sm 65
wegdud 65
amkan 65
umezgun 65
tamawt 65
yegduden 64
da 64
imenγi 64
ayt 64
tayri 64
tid 64
muḥend 64
amzun 64
imdanen 64
taglizit 64
aman 63
udem 63
tuddar 62
the 62
asya 62
tegrawla 62
akkw 62
agdud 62
wurigami 62
tikelt 62
aken 61
zedγen-t 61
wayeḍ 61
ḥmed 61
qui 60
agezdu 60
amaynut 60
isefra 60
iga 60
wasmi 60
sṭif 59
wumi 59
agraw 59
tafransist 59
tmetti 59
adabu 59
yekcem 59
aqbayli 59
dγa 59
tmazγa 59
ukabar 59
yeqqim 58
aki 58
tiγiwanin 58
ugezdu 58
tsekla 58
yelli 58
yinelmaden 58
of 58
uselmed 57
bumerdas 57
fṛansa 57
unṣib 57
yezgan 57
assa 57
tmurt-is 57
tamenzut 57
tafat 57
ugellid 57
wawalen 57
ul 57
gma-s 56
iwumi 56
mliḥ 55
nitni 55
sdat 55
ay-a 55
muḥand 55
tunṣibt 55
lalman 55
temnaḍt 55
yes 55
yagi 55
tsertit 54
ddin 54
yiman-is 54
anamek-is 54
nutni 54
γur 54
tefsut 54
yexdem 54
tafsut 54
unabaḍ 54
tayeḍ 54
aγelnaw 54
pour 54
tdukli 54
ttidiren 54
new 53
spenyul 53
dayen 53
nord 53
ismawen 53
ou 53
lzzayer 53
yebγa 53
yerzan 53
latinit 53
tidett 53
tagduda 52
tamaynut 52
tezlatin 52
tameṭṭut 52
ukaγeḍ 52
tagelda 52
lḥebs 52
adzayri 51
niveau 51
tameddurt 51
tafriqt 51
iruḥ 51
aydeg 51
azzayri 51
wanag 50
tasertit 50
tutlayt-nsen 50
yimaziγen 50
tiddukla 50
ussan 50
syin 50
yettwasnen 49
ɛli 49
suq 49
israyil 49
ṛebbi 49
ikemmel 49
aneggaru 48
tefrikt 48
iγil 48
yessawalen 48
wakk-n 48
temrikt 48
dda 48
yettmeslayen 48
seg-sen 48
rradyu 48
wlad 48
wudem 48
izwawen 48
uwanak 48
isekkilen 47
idles 47
rrif 47
tameqqrant 47
tusnakt 47
tadelsant 47
wamek 47
zedγen 47
uγalen 47
arrif 46
ugaraw 46
tawacult 46
ilel 46
yuran 46
yid-s 46
yettidiren 46
par 46
fell-asen 46
km² 46
macci 45
sud 45
tawrirt 45
wedrar 45
tlelli 45
taqburt 45
alemmas 45
atan 45
sur 45
ssi 45
yidurar 45
teglizit 45
unẓul 45
nnes 45
taγelnawt 45
furar 45
lexrif 44
tekcem 44
lγaci 44
mulud 44
asget 44
tamecṭuḥt 44
une 44
aqbur 44
umennuγ 44
yeqqel 44
izerfan 44
faḍma 44
mmis 44
tilelli 44
dans 44
illan 43
ubrid 43
imelyan 43
yurar 43
ii 43
webrid 43
anect-a 43
ugafa-agmuḍan 43
naγ 43
urigami 43
diγen 43
musa 43
yesεa 43
waken 43
aẓar 42
izem 42
tilisa 42
libya 42
temmut 42
meḥsub 42
neqqar 42
windows 42
gan 42
yettwassen 42
aqerru 42
yisem-is 42
yefka 42
ssawalen 42
adrum 42
amedyaz 42
amussu 41
ikilumitren 41
amyaru 41
tezmer 41
mayyu 41
aɛrab 41
atrar 41
qrib 41
tamedyazt 41
aberkan 41
kraḍ 41
tenna-as 41
amaru 41
yenna 41
lhend 40
wad 40
γas 40
tlul 40
asaru 40
tγawsiwin 40
ǧerǧer 40
tadukli 40
seg-s 40
uẓawan 40
mbeɛd 40
teqqel 40
taγlamt 40
umussu 40
usaru 40
talγa 40
yidis 39
tasdawit 39
urar 39
imeqqranen 39
iberdan 39
wala 39
d-yezzin 39
an 39
tiṭ 39
ungal 39
alammi 39
br 39
yimelyunen 39
yenna-d 39
yuγalen 39
nord-est 39
illul 39
wadda 39
taẓuri 38
lemmer 38
iwunak 38
ikcem 38
unadi 38
yiḍ 38
yakan 38
leqran 38
ccinwa 38
umuγ 38
tewsit 38
ait 38
yelhan 38
meγres 38
niγ 38
yedduklen 38
immut 38
yeǧǧan 38
iwala 38
que 38
yemma 38
tmeṭṭut 38
yerra 37
tezga 37
marikan 37
awalen 37
tugniwin 37
surya 37
tirni 37
yiraten 37
aγrem 37
saɛid 37
imedyazen 37
internet 37
belɛebbas 37
yeḍran 37
ṭṭfen 37
yeṭṭef 37
wigi 37
daxel 37
xedmen 37
japun 37
qqimen 36
idlisen 36
ixeddem 36
yibaskiyen 36
yimukan 36
wammas 36
temnaḍin 36
akud 36
asideg 36
tteryel 36
irgazen 36
al 36
ṛṛum 36
talmanit 36
aked 36
yeḥya 36
yettidir 36
ali 36
ml 36
tiyaḍ 36
ufus 36
sud-est 35
wi 35
udayen 35
lwennas 35
yedlisen 35
lebni 35
nekk 35
nezzeh 35
leḥkem 35
wagi 35
http 35
mass 35
tagnit 35
wedlis 35
imalas 35
iles 35
iswi 35
tagrawla 35
nt 35
uselway 34
aqdim 34
tazart 34
aselmad 34
akli 34
yis-s 34
amarir 34
yezmir 34
asawen 34
wakud 34
ɛazem 34
tugdut 34
aḥmed 34
ilin 34
yakk 34
tgelda 34
dacu 34
cemmini 34
tuγ 34
ṭmana 34
iman-nsen 34
awanak 34
ttinin-as 34
lmulud 34
aẓawan 34
d-nini 34
tilawin 34
nek 34
isura 33
leḥsab 33
amecṭuḥ 33
uneẓruf 33
aγersiw 33
in 33
addad 33
d-yekkan 33
afus 33
wurar 33
muḥ 33
skikda 33
inselmen 33
semman-as 33
aggi 33
temdinin 33
yismawen 33
tuget 33
wass-a 33
teɛrabt 33
akabar 33
yufa-d 33
franṣa 33
umedya 32
ayagi 32
taddart-is 32
tegzirt 32
warrac 32
tmurt-nsen 32
umdan 32
teqqim 32
tajmilt 32
anemhal 32
amaziγ 32
yettwassnen 32
yessaweḍ 32
yessen 32
tuγac 32
yas 32
lmut 32
lawan 32
semman 32
gar-asent 32
yir 32
azamul 32
yejjan 31
kecmen 31
wehran 31
imir 31
yusa-d 31
ass-nni 31
pays 31
send 31
amaruz 31
il 31
timaziγin 31
tettwassen 31
ddren 31
tkurt 31
bac 31
lxalat 31
radyu 31
unagraw 31
usseggwas 31
ssuq 31
wemkan 31
ilmeẓyen 31
kabylie 31
ugemmay 31
tlawin 31
ǧamila 31
tewwi 31
arma 31
alma 31
tuddsa 30
tihert 30
robert 30
ilulen 30
krad 30
tudert-is 30
tameslayt 30
udrar 30
wegraw 30
uzaγar 30
amḍiq 30
tẓegwa 30
teẓgi 30
waggur 30
sseqdacen 30
irland 30
cclef 30
yuγal 30
iran 30
um 30
roma 30
aseqqamu 30
tesεa 30
wakk 30
wenẓul-agmuḍan 30
yedder 30
it 30
ibn 30
brahim 30
aṭṭas 30
tegduda 30
usselmed 30
tajumma 29
yilli 29
yeqbayliyen 29
yekker 29
tziri 29
iγallen 29
anagraw 29
acennay 29
iman 29
yeqqar 29
ansi 29
gen 29
wergaz 29
yetturar 29
anabaḍ 29
saint 29
iselmaden 29
tmucuha 29
yergazen 29
ineggura 29
igduden 29
izedγen 29
pas 29
tdayra 29
acuγer 29
ifassen 29
iwaḍiyen 29
ilul-d 29
yufa 29
yenna-as 29
meɛṭub 29
tizlatin 29
muḥemed 29
ixxamen 29
tarusit 29
anida 29
umerruk 28
tlisa 28
yewweḍ 28
amḍan 28
iγersiwen 28
icennayen 28
aneγlaf 28
com 28
yamina 28
uḍfas 28
teγzi 28
zzit 28
mɛesker 28
tadyant 28
yettili 28
yimdanen 28
imawlan-is 28
tesɛi 28
dima 28
zzayer 28
talalit 28
yezga 28
anecta 28
agelmim 28
deg-sent 28
ugafa-utrim 28
way-a 28
seddaw 28
yebγan 28
anaẓur 28
yeγra 28
yelha 28
york 28
qqlen 28
d-yellan 28
aɛli 28
alatini 28
mayu 27
ain 27
amellal 27
uzarug 27
semmus 27
lbaṭel 27
wul 27
inna 27
numidya 27
kamal 27
timdinin 27
taklit 27
amennuγ 27
imeslayen 27
atas 27
mhenni 27
tatrart 27
timella 27
trebbaɛ 27
tafrikt 27
zekri 27
laman 27
dis 27
yeqdec 27
iserdasen 27
taberkant 27
yesεan 27
arraw 27
igenni 27
tturk 27
izemren 27
indépendance 27
tantala 27
i-d 26
iqeddec 26
amatu 26
wemgaru 26
yettekkan 26
agadir 26
meṛṛa 26
tacennayt 26
yak 26
nom 26
lubnan 26
talwit 26
tigzirt 26
iqeddcen 26
ctamber 26
waɛraben 26
aït 26
zik-nni 26
wwḍen 26
waddad 26
tadamsa 26
aγerbaz 26
sidna 26
ssawḍen 26
yewwi 26
yeffeγ 26
yeḥricen 26
ferḥat 26
dagi 26
tessaweḍ 26
ilmend 26
mouvement 26
ayyur 26
belεid 26
nord-ouest 26
isemma 26
yefkan 26
ul-iw 26
lislam 26
timlilit 26
yelli-s 25
tasekla 25
aswir 25
warraw-is 25
yarna 25
tegzirin 25
ḥemmad 25
yakuc 25
qsenṭina 25
asen 25
taεrabt 25
yimir-n 25
bni 25
tegnit 25
ugdud 25
sont 25
uguren 25
maḍi 25
anẓul 25
ameẓyan 25
iṛumyen 25
amagrad 25
tutrimt 25
ttrad 25
ttawil 25
tazwawt 25
uxxam 25
rran 25
meqqer 25
iḥemmel 25
iy 25
iγef 25
lɛerc 25
terbaɛt 25
ccwal 25
udlis 25
jijel 25
akkin 25
ccek 25
mmi 25
tipaza 25
unebdu 25
nesɛi 25
tanglizit 25
merṛa 25
fln 25
baba 25
iqburen 25
tutlayt-is 24
yimzadaγen 24
alama 24
tedwilt 24
zzman 24
yura-d 24
d-yewwi 24
butefliqa 24
tilawt 24
yiṭij 24
ixdem 24
au 24
tewwi-d 24
idammen 24
yekkat 24
ih 24
fkan 24
yes-s 24
tameddurt-is 24
werǧin 24
web 24
idrimen 24
tmedyazt 24
tamaḍlarut 24
cwit 24
afransis 24
tutlayt-a 24
yedda 24
tameγra 24
yid-sen 24
anwa 24
tamnaṭ 24
tebḍa 24
lemden 24
yisekla 24
tasga 24
wer 24
mammeri 24
taqcict 24
turar 23
twaculin 23
yakw 23
aγmis 23
amγar 23
yidles 23
ugaren 23
tasuvyatit 23
kenya 23
melmi 23
inaẓuren 23
lameɛna 23
tga 23
qbel 23
nnuba 23
yeqbel 23
timucuha 23
ini 23
yemgerraden 23
aggur 23
iḍ 23
www 23
myal 23
galma 23
tameddit 23
lḥeqq 23
imawlan 23
ṭṭrad 23
tafellaḥt 23
timiwa 23
tikkwal 23
tarwa 23
tiliẓri 23
lebwaqi 23
asefru 23
imyura 23
tγuri 23
temdint-a 23
yefren 23
augustin 23
mali 23
tawsit 23
iẓuran 23
tmettant 23
yeffeγ-d 23
tigduda 23
tirlandit 23
ameskar 23
adelsan 23
useqqamu 23
γur-sen 23
racid 23
arrac 23
timeqranin 23
lamaɛna 23
ten 23
iγzer 23
crif 22
leblida 22
yewwi-d 22
lqanun 22
temsal 22
sen 22
igan 22
arif 22
grand 22
luxembourg 22
iri 22
utrim 22
igerdan 22
buluγin 22
spanya 22
département 22
aselmed 22
yizerfan 22
tagi 22
iyi 22
teγri 22
tlalit 22
tmeddurt 22
lɛiraq 22
weḥric 22
ulamma 22
yugi 22
kkan 22
tennis 22
iṭij 22
uẓar 22
lawan-nni 22
azgen 22
msefhamen 22
tarbaεt 22
nettaru-t 22
tamurt-a 22
werɛad 22
agaraw 22
yeḥbes 22
simmal 22
wuguren 22
tamaziγt 22
akwd 22
iwata 22
wezgen 21
meslayen 21
tifrat 21
tarifit 21
ibaskiyen 21
awal-a 21
briṭanya 21
aneẓruf 21
nini 21
lemdiyyet 21
idzayriyen 21
taγect 21
telli 21
ddewla 21
arraz 21
tamrikt 21
uwanek 21
salem 21
abrid-is 21
tamdint-a 21
iteddu 21
tagraγlant 21
tabaskit 21
king 21
tmusni 21
tuzga-d 21
azarug-is 21
ɛmer 21
yettaru 21
tmurt-agi 21
wesnerni 21
mazal-it 21
tedbelt 21
iflisen 21
segmi 21
yaweḍ 21
yiγerbazen 21
yewwin 21
ddurt 21
iqqim 21
yettekka 21
umaziγ 21
ilugan 21
yegmamen 21
lehna 21
lḥif 21
tfellaḥt 21
ladγa 21
aɛraben 21
lxir 21
yekka 21
lɛesker 21
tlemsan 21
tettaked 21
imir-n 21
wahil 21
tamuγli 21
azarug 21
ifazen 21
ouled 20
tadzayrit 20
iṛuḥ 20
yigerdan 20
akaγeḍ 20
way-n 20
t-id 20
yides 20
asqif 20
aṭlasi 20
weγrem 20
tama-s 20
fellas 20
ontario 20
d-yeffγen 20
sya 20
aγella 20
ahras 20
widak 20
marius 20
stark 20
muḥamed 20
ugama 20
yefka-d 20
texṣer 20
temsalt 20
ẓer 20
wallen 20
izga 20
jelfa 20
taneggarut 20
inaddalen 20
anagar 20
tgeldit 20
adeg 20
london 20
tugdi 20
ungalen 20
addal 20
isɛa 20
leṣnaf 20
attan 20
yiγil 20
akk-a 20
sa 20
imukan 20
ttwalin 20
tutlayin-agi 20
ns 20
yeg 20
tella-d 20
yizem 20
sdeffir 20
sinna 20
ya 20
rruman 20
azwel 20
mezdad 20
lexmis 20
and 19
yettili-d 19
tekker 19
tefka 19
tamellalt 19
rabaḥ 19
teqbilt 19
draɛ 19
yisefra 19
teγlamt 19
ah 19
sbiṭar 19
ɛellawa 19
trusit 19
amarikani 19
george 19
aḍebsi 19
yiγersiwen 19
nella 19
mraw 19
ilelli 19
uran 19
imusnawen 19
akfadu 19
imaynuten 19
aqcic 19
cabḥa 19
ameqṛan 19
comme 19
ajjed 19
daγ 19
kem 19
tettekka 19
yemlal 19
tikti 19
muriṭanya 19
yeqqnen 19
tarumit 19
azekka 19
at-yeḥya 19
isuḍaf 19
teggug 19
tamanaγt-is 19
badis 19
umedyaz 19
afurk 19
irumiyen 19
lalla 19
uselkim 19
asunded 19
yebḍa 19
cna 19
ifadden 19
ustralya 19
taddart-a 19
tawwurt 19
ne 19
tiγelnawin 19
takurt 19
aḍfas 19
yimal 19
yella-d 19
yeqqimen 18
kirgizistan 18
ahil 18
anelmad 18
sswid 18
burǧ 18
mestγanem 18
umḍal 18
kemmlen 18
amar 18
wewras 18
imir-nni 18
d-yeffeγ 18
uḥric 18
belqasem 18
timmad-is 18
wember 18
iɛeddan 18
rrus 18
tagmuḍant 18
yelmed 18
iban 18
umagrad 18
amaḍal 18
yilemẓiyen 18
afrensis 18
lpari 18
mas 18
ddabex 18
tamenḍawt 18
lγella 18
timestamp 18
akin 18
teqreb 18
weqmaḍ 18
timanit 18
yeǧǧa 18
sγur 18
takfarinas 18
nnan-d 18
ṭelyan 18
tiẓri 18
tizlit 18
irumyen 18
asnulfu 18
times 18
ctember 18
kullec 18
jean 18
contributor 18
tamudemt 18
yunag 18
seqdacen 18
model 18
negh 18
tqeddec 18
format 18
iberkanen 18
ce 18
asuf 18
yimezdaγ 18
yessawḍen 18
sufella 18
angal 18
yiselmaden 18
dujember 18
bγan 18
xeddmen 18
tameqṛant 18
temẓi-s 18
wagar-asen 18
plus 18
itri 18
aux 18
iḍrisen 18
tamnaḍt 18
wennar 18
tawuri 18
yettawin 18
taspenyulit 18
imut 17
sed 17
yuba 17
ɛebdelɛaziz 17
azekka-nni 17
batnet 17
srid 17
mači 17
wagguren 17
se 17
naγ 17
weγmis 17
arumi 17
danmark 17
tmudmin 17
ablidi 17
kurya 17
yiman-nsen 17
dgha 17
aïn 17
iǧehden 17
tama-a 17
d-mazal 17
tullas 17
wayyuren 17
legliz 17
lγella-s 17
agafa 17
teqcict 17
talmest 17
ibeddel 17
tamaneγt-is 17
umenzu 17
awanek 17
iii 17
ṭrad 17
umkan 17
yesseqdac 17
tamsalt 17
ucennay 17
tazmert 17
tigzirin 17
yexxamen 17
iqdimen 17
tmussni 17
lebda 17
d-yusan 17
tasfift 17
isem-agi 17
yussan 17
amezdaγ 17
rnu 17
yettwarun 17
paul 17
yernan 17
yan 17
garasen 17
usammar 17
lɛarc 17
berra 17
pakistan 17
imal 17
lqaɛa 17
larebɛa 17
winna 17
ass-mi 17
iγer 17
tt 17
ṣṣenf 17
yimedyazen 17
yerr 17
php 17
lxedma 17
tiyita 17
lqayed 17
imedyaten 17
tamselyut 17
ṭṭlam 17
arraw-is 17
nelli 17
icennu 17
oued 16
yimeγnasen 16
marx 16
yeẓra 16
imaziγen 16
imenza 16
aẓar-is 16
cette 16
iffeγ 16
tiwwura 16
timiḍi 16
bumedyen 16
tewwurt 16
tasebgast 16
yinurar 16
ahendi 16
lḥukuma 16
tuṛuft 16
tadayṛa 16
yewwet 16
izlan 16
uγersiw 16
alami 16
taneṣlit 16
ineṣliyen 16
beṛṛa 16
nebγa 16
ssnen 16
ufan 16
tiwal 16
yeddren 16
yinselmen 16
usmel 16
iteddun 16
ixf 16
parentid 16
tamusni 16
d-yeqqimen 16
mangellat 16
usnulfu 16
imezdaγ 16
d-yebda 16
tamettant 16
tikkal 16
timsal 16
sebba 16
username 16
tmudemt 16
weẓru 16
beccar 16
tamγart 16
ttekkin 16
tinna 16
lqahwa 16
imecṭaḥ 16
yeddan 16
game 16
itt 16
wacu 16
marra 16
qeddcen 16
tcawit 16
iɛeẓẓugen 16
sawalen 16
ikurdiyen 16
infusen 16
usaḍuf 16
yaru 16
timucent 16
administration 16
igen 16
ɛlayen 16
azemmur 16
nniden 16
aṛumi 16
ddeqs 16
usṭralya 16
afṛensis 16
wanda 16
tislit 16
yebdan 16
tettidir 16
laɛzib 16
ursu 16
umyaru 16
on 16
d-nebder 16
tamuqrant 16
tγiwanin 16
non 16
tidyanin 16
maillot 16
tekfa 16
abranis 16
yeṭṭfen 16
akter 16
tesγunt 16
teg 16
tirrugza 16
fγen 16
tdamsa 16
henri 16
taqbilt 16
uḍebsi 16
d-yuzgan 16
iγrem 16
mengellat 16
rnan 16
tefra 16
tebna 16
texdem 16
beni 16
terna 16
taγbalut 16
tezwara 16
yettuseqdac 16
wayes 16
nessin 16
tawacult-is 16
qqaren-d 16
amgaru 16
ugmuḍ 16
teqbilin 16
tseddawit 15
ami 15
later 15
lḥaǧ 15
tageldit 15
izwilen 15
wayyur 15
agraγlan 15
kamirun 15
ffs 15
lγerba 15
kker 15
tacelḥit 15
tlatinit 15
tmeslayt 15
ǧamal 15
système 15
irusiyen 15
walan 15
laṣel 15
ccerfa 15
biljik 15
yemnayen 15
san 15
dduṛ 15
nekni 15
amyag 15
annar 15
yeḥkem 15
tiγawsiwin 15
tiγri 15
berbère 15
agrigi 15
yedrimen 15
pascal 15
kabyle 15
d-yuγal 15
yettwaṭṭef 15
qbilen 15
weγlis 15
acemma 15
yebwi 15
dduklen 15
ibrir 15
tadwilt 15
ǧerba 15
ssebba 15
yecna 15
usefru 15
terra 15
unẓul-amalu 15
ugin 15
ccan 15
litwanya 15
tafelwit 15
tussniwin 15
goethe 15
tugna 15
fkan-as 15
tilizri 15
talsa 15
lmitrat 15
yesɛi 15
imγan 15
zikenni 15
bnan 15
wansayen 15
tewweḍ 15
thrones 15
taγawsa 15
nurdin 15
targit 15
seld 15
yura-t 15
tewsatin 15
ajapuni 15
tallalt 15
leqrun 15
yettwasen 15
waṭlas 15
tecna 15
ras 15
waddal 15
tmurt-nneγ 15
arusi 15
d-yelhan 15
taluft 15
ẓran 15
sebɛa 15
asduklan 15
merr'a 15
awḥid 15
amusnaw 15
dwala 15
tgara 15
yefka-yas 15
wammud 15
ass-agi 15
charles 15
politique 15
imuhaγ 15
avec 15
tettuseqdac 15
imeddukal-is 15
inazuren 15
qasi 15
d-yenna 15
tutlayin-nsen 15
mmuten 14
allen 14
aseggwas 14
ibda 14
nuredin 14
paragway 14
yenγa 14
yasin 14
yirusiyen 14
mohamed 14
yimenγi 14
d'un 14
umur 14
ag 14
tuwey 14
tmeγra 14
yuγal-d 14
tedda 14
microsoft 14
mila 14
tiqburin 14
net 14
ṛṛuman 14
lewnis 14
brazil 14
targa 14
tuffγa 14
louis 14
tjumma-s 14
tefṛansist 14
umazrar 14
nnif 14
tegrest 14
aγerfan 14
snitra 14
mkul 14
lemmden 14
tesga 14
taγuri 14
micli 14
amuqran 14
tɛebrit 14
unazur 14
iγerbazen 14
mlalen 14
gma 14
liste 14
yiles 14
ilemẓi 14
abu 14
timeqqranin 14
mais 14
ttnadin 14
uṭṭun 14
yecban 14
wanẓul 14
ziri 14
tamasiḥit 14
lǧida 14
tmuγli 14
temẓi 14
mazal-iten 14
yid-es 14
wenẓul-utrim 14
aḥerfi 14
aεli 14
naqal 14
llsas 14
laban 14
ttamnen 14
tafekka 14
yuli 14
yedraren 14
tiγremt 14
amahil 14
tejmaɛt 14
nettini 14
inemlayen 14
zina 14
ssebt 14
asirem 14
uraren 14
seksu 14
terbaεt 14
laẓ 14
qqarn-as 14
busnya 14
xeddam 14
rren 14
nna 14
tabexsist 14
leɛnaya 14
yerwel 14
uzekka 14
afgan 14
tezmir 14
yemmet 14
teccna 14
anadi 14
trad 14
cfiγ 14
tedyanin 14
taqa 14
imuriyen 14
deqs 14
ḥasi 14
syen 14
imḍebber 14
tizrigin 14
γur-neγ 14
tikubaniyin 14
ttgen 14
imagraden 14
qaren 14
keccini 14
ḥekmen 14
taqbuct 14
idda 14
unekcum 14
lmal 14
tedder 14
tezgad 14
igerrzen 14
yini 14
lmasiḥ 14
agmuḍan 14
tira-s 14
wat 14
teṭṭef 14
wungalen 14
yenger 14
iminigen 14
wanect-a 14
wedγaγ 14
drus 14
omar 14
d-sbedden 14
terbeḥ 13
ifka 13
iḥekmen 13
nettaf 13
uγen 13
abǧawi 13
tagrawt 13
iṭṭef 13
org 13
yefhem 13
umeslay 13
lεesker 13
itran 13
leqṣer 13
sser 13
llan-d 13
iw 13
ahmed 13
aṣqif 13
ksila 13
iγerman 13
menwala 13
ila 13
teγli 13
yelmeẓyen 13
arezqi 13
yiserdasen 13
tigti 13
tmara 13
tacerqit 13
γer-s 13
xx 13
imucaγ 13
dina 13
yugad 13
atmaten 13
tilmas 13
udmawen 13
wemyag 13
sg 13
unamek 13
aserti 13
weltma-s 13
taslekt 13
imezdaγ-is 13
tt-yettmeslayen 13
aksil 13
fella-s 13
taɛrabin 13
ahric 13
mmeslayen 13
bab-is 13
mẓab 13
aẓayer 13
tfukt 13
iqedcen 13
isegassen 13
fr'ansa 13
islam 13
uzemmur 13
timsirin 13
tidukkla 13
acimi 13
tezmert 13
lḥenni 13
albanya 13
wallalen 13
γren 13
deux 13
nessen 13
tferka 13
axeddim 13
aqerruy-is 13
yebna 13
ssenf 13
taṛumit 13
aserdas 13
yewit 13
dduṛt 13
lḥara 13
michigan 13
yimassanen 13
ttin 13
izmer 13
kull 13
teḥkem 13
teddun 13
forme 13
d-yini 13
asfel 13
teqqen 13
degs 13
idelsanen 13
d-kecmen 13
nnan-as 13
burkina 13
watmaten-is 13
tibexsisin 13
tebɛed 13
yuγ 13
taɛṛabt 13
yamen 13
yaγ 13
agni 13
mgdwl 13
tasuta 13
tiẓgi 13
lweqt-nni 13
tajumma-s 13
asekkil 13
unti 13
yellilten 13
imula 13
amazrar 13
yugin 13
mɛemmer 13
yark 13
mazal-itt 13
yessuffeγ-d 13
tigi 13
bulgarya 13
john 13
tidmi 13
yettwaxdem 13
mekka 13
lyon 13
ḥusin 13
ussnan 13
yemγan 13
ḥnifa 13
delles 13
tektiwin 13
wudmawen 13
tuffra 13
yebγu 13
sqedcen 13
aεmar 13
tedwilin 13
buγni 13
timaynutin 13
tous 13
ugur 13
aneγmas 13
tudayt 13
lsas 13
agmam 13
tizi-wezzu 13
ghef 13
tebwi 13
sabaw 13
taγerbit 13
tasaɛudit 13
rock 13
timecṭaḥ 13
mouloud 13
iḍefsen 13
amuran 13
ilul-ed 13
ttnaγen 13
cadli 13
wwin-d 13
turagt 13
tkemmel 13
national 13
lgirra 12
tutlayt-nneγ 12
yeγmisen 12
tizi-uzzu 12
irden 12
teffeγ 12
village 12
uzeṭṭa 12
hirziguvina 12
useqdec 12
aγelnaw 12
magu 12
ammud 12
waɛli 12
uzal 12
franco 12
rewlen 12
ammas 12
ɛumar 12
ɛebbas 12
yigelmimen 12
ljal 12
mu 12
d'une 12
adeg-aγella 12
idis 12
ansay 12
cṛifa 12
ṭrables 12
tamacahutt 12
tɛadda 12
tamurt-nsen 12
amurakuc 12
kateb 12
ameγnas 12
agwni 12
ǧiǧel 12
tineslemt 12
rbaṭ 12
utilifun 12
tebγa 12
nous 12
panama 12
watmaten 12
lḥemmam 12
tbeskert 12
lebγi 12
ttawilat 12
banu 12
umenẓaw 12
ussukkes 12
mimun 12
nsent 12
assaγ 12
martin 12
yefk 12
lejdud 12
weγref 12
alger 12
asegget-is 12
arun 12
ticki 12
lqayen 12
mettijet 12
waṭṭas 12
ti 12
yeqqen 12
γur-s 12
isem-ines 12
m'ara 12
tilas 12
c'est 12
yawi 12
burj 12
tigawt 12
tḥudd-itt-id 12
ukud 12
sulfentid 12
amelwi 12
adfel 12
iɛedda 12
ruḥen 12
عين 12
ifuk 12
iγlanen 12
tamacahut 12
ttar 12
hilal 12
larbɛa 12
lexla 12
tmes 12
tiẓrigin 12
telha 12
issem 12
gren 12
listiɛmar 12
imγi 12
waddalen 12
yimaziγen 12
γures 12
icebḥen 12
tugett 12
tmiwa-yagi 12
sdaxel 12
tadbelt 12
ḥemmam 12
nezmir 12
centre 12
lumuṛ 12
timnaḍin 12
ayγef 12
ilaqen 12
qeblen 12
yeldin 12
maria 12
ṣṭif 12
iγra 12
kecc 12
tullisin 12
amawal 12
darwin 12
igawawen 12
twacult-is 12
tegrigit 12
ttaken 12
japon 12
ttbut 12
tikta 12
tizeγt 12
telenẓar 12
tamazγa 12
ameslay 12
ɛemran 12
tasnudert 12
miksik 12
tṛumit 12
caker 12
victor 12
messali 12
peut 12
legrig 12
tmeγra 12
yezwawen 12
hamid 12
yugerten 12
yiḥemmadiyen 12
yinig 12
tettwasen 12
ḥasan 12
letniyen 12
neẓra 12
ibudraren 12
gher 12
lɛali 12
isem-a 12
xemsa 12
dawed 12
isnulfa-d 12
aɛlayan 12
tuγal-d 12
mississippi 12
tmeddit 12
yiberdan 12
code 12
skud 12
yekkes 12
widen 12
tyiwt 12
lbacir 12
tela 12
tisemsilt 12
unaẓur 12
dindin 12
uzzal 12
los 12
iḍerrun 12
wiss 12
umadal 12
tazzayrit 12
ubellez 12
imarikaniyen 12
ayla 12
wuccen 12
isegasen 12
leqdic-is 12
uzelmaḍ 12
aẓru 12
asertan 12
amalu 12
imarikanien 12
ẓriγ 12
lbaz 12
vietnam 12
ira 12
lḥusin 12
iluled 12
iγmisen 12
afrux 12
tfekka 12
yessnen 12
tzunegzirt 12
agmuḍ 12
kuz 12
aṭṭan 12
warraw 11
city 11
to 11
wenrar 11
tiktiwin 11
traḍ 11
ṭṭaref 11
lemɛawna 11
maamar 11
lǧemɛa 11
iderma 11
tamarikanit 11
yettwattun 11
ubeddel 11
ixef 11
tusa-d 11
tesseqdac 11
utc 11
kksen 11
arumani 11
wazal-is 11
axaṭer 11
yeγran 11
yettak 11
tiqbilin 11
imassanen 11
ṛṛay 11
weslelli 11
amaynu 11
iḥbes 11
awin 11
nnbi 11
yeγli 11
tamara 11
isyin 11
tamussni 11
don 11
nijir 11
iten 11
jurjya 11
tajmaɛt 11
sɛid 11
walbaɛḍ 11
michel 11
yekkan 11
yiḍelli 11
murad 11
waḍu 11
tukksa 11
yekfa 11
ffγen 11
platon 11
yeddem 11
washington 11
ttxemmimen 11
tayemmat 11
tlufa 11
nitenti 11
trisiti 11
timetti 11
uḍefs 11
wegris 11
nufa 11
être 11
cili 11
timunent 11
allus 11
carl 11
d-yefkan 11
taqdimt 11
d-yeḍran 11
yaf 11
temlilit 11
taɛebrit 11
amurigam 11
waguren 11
ifriqiyen 11
tuzzya 11
wassa 11
teqdec 11
yenγa-t 11
aquran 11
ssɛida 11
imḍebbren 11
algérie 11
asmel 11
akwed 11
kungu 11
ḥilmi 11
kosovo 11
tabriṭanit 11
zrin 11
ces 11
wartilan 11
uḥuddu 11
isental 11
iwali 11
irumaniyen 11
aɛmar 11
tizlatin-is 11
neḍfes 11
terni 11
wemḍal 11
euro 11
tamanaγt 11
ddefla 11
iḍebsiyen 11
xaled 11
sem 11
tettwaru 11
summam 11
son 11
ilan 11
xix 11
wakka 11
tubeṛ 11
aglizi 11
tettili 11
kter 11
setta 11
lkanun 11
belḥanafi 11
bγiγ 11
yara 11
rray 11
ttekkan 11
misipsa 11
lkaγeḍ 11
ba 11
weqbel 11
amaḍlan 11
bḍan 11
d-ilulen 11
sḍis 11
taxxamt 11
sud-ouest 11
winterfell 11
yekkaten 11
xi 11
hewwari 11
arminya 11
blida 11
yezrin 11
izzayriyen 11
bir 11
yanni 11
tiγilt 11
ččen 11
ameskan 11
tessuffeγ-d 11
tagnitt 11
lliγ 11
yughal 11
aɛebri 11
leslaḥ 11
nwali 11
lejdud-is 11
tifinagh 11
buɛadu 11
yettmeslay 11
tusna 11
ttlata 11
tjumma 11
iẓra 11
ni 11
tasuqilt 11
ḥemza 11
walin 11
yisefka 11
mouffok 11
seg-sent 11
udem-is 11
saεid 11
azegriran 11
kṛaḍ 11
tsekkurt 11
ttilin 11
jadu 11
بن 11
tentalyin 11
wikipedia 11
umḍiq 11
yemjuhad 11
almani 11
uyefki 11
asaḍuf 11
harun 11
useggas-nni 11
lḥed 11
afud 11
yerra-d 11
nnan 11
ath 11
tabadut 11
aγezfan 11
lmerṣa 11
amkan-is 11
leqdicat 11
tsusmi 11
icudden 11
identité 11
mulay 11
ddan 11
mɛemmri 11
tagemmunt 11
tmeγriwin 11
uqbayli 10
katalunya 10
mazal-aγ 10
teḥbes 10
ttun 10
ikfa 10
lekmal-is 10
usirem 10
ṭawes 10
ppa 10
wayed 10
ureγ 10
imelyaren 10
teḍra 10
yettarun 10
ɛebban 10
madrid 10
tulawin 10
lwad 10
umaṭṭaf 10
azref 10
leḥḥun 10
yebda-d 10
nitet 10
ont 10
meɛna 10
wissen 10
tiziri 10
marseille 10
amecwar-is 10
island 10
wudayen 10
yiqeddacen 10
tegwnitt 10
umadaγ 10
ufurk 10
can 10
wallen-is 10
ibanen 10
att 10
générale 10
tebda-d 10
anzi 10
er 10
serbya 10
waggagen 10
usamar 10
tesseqdec 10
aεrab 10
ikabaren 10
wedrum 10
isardasen 10
finland 10
masnsen 10
ilemẓiyen 10
falesṭin 10
yettwafren 10
tuǧa 10
tanebḍit 10
immuten 10
sseqdacen-t 10
teslit 10
icna 10
maser 10
tγawsa 10
tamhazt 10
yezdeγ 10
we 10
d-naf 10
fait 10
nγan 10
awrir 10
uṛuman 10
imeγnasen 10
uslig 10
teddem 10
imazighen 10
statut 10
noms 10
wulawen 10
isɛan 10
tigemmi 10
nations 10
leqder 10
takti 10
isalen 10
montreal 10
afγanistan 10
lycée 10
nnuγen 10
dd 10
standard 10
agraγlan 10
essaid 10
usammer 10
ansa 10
imγaren 10
aγref 10
amecwaṛ 10
moudjahid 10
yesselmad 10
isallen 10
masinisa 10
amseḍru 10
était 10
iḥricen 10
amekla 10
tγawsiwin 10
tamurt-is 10
communauté 10
rebɛa 10
walaγ 10
yettwali 10
icawiyen 10
imuhal 10
yerbeḥ 10
ttjuṛ 10
société 10
ubagu 10
ḥaca 10
abeddel 10
ilmed 10
iɛetmaniyen 10
farid 10
ḥedd 10
tmagit 10
malḥa 10
amenẓaw 10
yessiweḍ 10
open 10
gmas 10
berlin 10
ṣṣifa 10
allal 10
tesnawit 10
hibel 10
aglam 10
unsib 10
uhaggar 10
qṣer 10
yerra-tt 10
aγ 10
awezlan 10
abriṭani 10
masensen 10
welmad 10
baba-inu 10
aγanib 10
lfayda 10
tislamit 10
temγart 10
aḍris 10
wwin 10
tabγest 10
uγanib 10
d-yekka 10
uqerru 10
ḥaǧ 10
lwali 10
ten-sers 10
gellan 10
d-iḍefren 10
wanẓul-agmuḍ 10
teffeγ-d 10
asertay 10
ussan-d 10
imeṭṭi 10
ṭaher 10
aγarim 10
ttinin 10
tagmatt 10
tkessawt 10
zgan-d 10
ufan-d 10
amalay 10
γaf 10
bretagne 10
tmerwin 10
ugraw 10
busemγun 10
yat 10
n'est 10
annect-a 10
tacawit 10
tamaceq 10
temsirin 10
timezwura 10
fas 10
wemkan-is 10
taourirt 10
ɛuman 10
yeqqaren 10
tumert 10
award 10
yettuγal 10
lebḥer 10
tiddukliwin 10
tamesgida 10
amafag 10
ciṭṭaḥ 10
asegbar 10
awal-is 10
yemmuten 10
rusya 10
iga-d 10
bin 10
xir 10
tajapunit 10
azrar 10
ul-is 10
d-tezga 10
nnsen 10
aqrib 10
mgaradent 10
kuẓ 10
jsk 10
fell-aγ 10
teγremt 10
yellis 10
way-en 10
tγiwant-a 10
yilin 10
sawalen-as 10
sus 10
yiqbayliyen 10
ataram 10
ɛuqba 10
agejdan 10
yesla 10
tewrirt 10
ifṛensisen 10
ahad 10
γur-i 10
autres 10
yenni 10
france 10
ibedden 10
elle 10
yigaliyen 10
yessebded-d 10
aurelius 10
tmnaḍin 10
uq 10
d-yeqqim 10
tturaren 10
tteddun 10
ajdid 10
lbeyyeḍ 10
ill 10
hitler 10
yemxallafen 10
tirawt 9
taεṛabt 9
yin 9
twala 9
agerdas 9
ikka 9
lḥedd 9
taffa 9
syinna 9
revision 9
temγer 9
wayt 9
tudart 9
tenna-yas 9
yemγaren 9
tamenṣabt 9
belḥaǧ 9
iger 9
lli 9
teččur 9
iqeddacen 9
sent 9
agreγlan 9
ism-is 9
yuraren 9
assebded 9
amhad 9
tanemlayt 9
balqan 9
tudert-nsen 9
wara 9
tettru 9
tiẓegwa 9
tama-nni 9
ziγ 9
yeflisen 9
farida 9
tasenselkimt 9
tanekra 9
ifrax 9
tasγunt 9
adam 9
tezlitt 9
umurigam 9
tetturar 9
tγiwant 9
aḥsen 9
imellalen 9
ihendiyen 9
tazelmaṭ 9
michelet 9
sɛant 9
sadeq 9
tzeqqa 9
yedǧan 9
tedrimt 9
tbexsisin 9
azrem 9
taza 9
lmerruk 9
aseqdec 9
rran-t 9
diγen 9
yiḍefsen 9
tagut 9
iraten 9
tiniri 9
timellalin 9
lexbar 9
amecwar 9
urgaz 9
tageldunt 9
uɛḍil 9
asdawan 9
yiwwas 9
ugelmim 9
asuṭṭaḍ 9
yeshel 9
tiznit 9
imezdaγ-ines 9
wukud 9
tawḥidt 9
rad 9
talγiwin 9
ctembeṛ 9
imceddalen 9
d-iban 9
ilint 9
aram 9
abjed 9
iwdan 9
as-tiniḍ 9
amnay 9
isafen 9
nẓer 9
taẓult 9
wimbledon 9
yeγlanen 9
iεraben 9
temsalt-a 9
tansa 9
kebek 9
ɛica 9
taseγrut 9
yettilin 9
tmazight 9
aneṣli 9
mednin 9
imasiḥiyen 9
lḥusima 9
lady 9
umbeɛd 9
unafag 9
tawi 9
yetran 9
van 9
monde 9
tettak 9
tekka 9
akal-nsen 9
tizlitt 9
yeḍfer 9
kuku 9
yessers 9
yewin 9
rruḥ 9
ferɛun 9
tutrict 9
tekkat 9
yettṛajun 9
tanumi 9
leflay 9
leḥcic 9
fis 9
amassan 9
idir 9
milan 9
mḥend 9
tagellidt 9
unabad 9
izri 9
muqren 9
mucaɛen 9
wannar 9
aqbu 9
araz 9
iγallen 9
ssinen 9
wedfel 9
ikker 9
wass-nni 9
lyanna 9
usihel 9
iɛraben 9
tafeḍ 9
kečč 9
santa 9
tazzla 9
wahilen 9
timziregt 9
tenger 9
tmnaḍt 9
kulci 9
ukabar-a 9
tiklisent 9
temdint-agi 9
sbanya 9
paraguay 9
yimuhaγ 9
imuqranen 9
nebder 9
tmiwa-ya 9
tfilkut 9
lḥasnawi 9
nnaḍur 9
nettu 9
yerza 9
azal-is 9
tiwaculin 9
m-ad 9
day 9
yugaren 9
igenwan 9
tfaska 9
sinima 9
aγrum 9
ussegwass 9
bnadem 9
ixeddmen 9
saɛdi 9
xvi 9
zmiren 9
ɛennaba 9
asun 9
tanga 9
dzzayer 9
weqcic 9
felli 9
text 9
yimurigamen 9
itett 9
ixerban 9
tannumi 9
taseɛdit 9
yiman 9
yesseqdacen 9
aɛessas 9
usamer 9
trumit 9
yemgaraden 9
ferhat 9
ttmeslayen-tt 9
arim 9
tullawin 9
iffeγ-d 9
budwaw 9
yuki 9
summer 9
imselleḥ 9
wussan-nni 9
nobel 9
kkes 9
wacḥal 9
aseklan 9
ferḥaγ 9
iqerben 9
lwaḥid 9
guda 9
yettwura 9
afiniqi 9
maḥmud 9
tamehla 9
azar 9
karl 9
tiqbayliyin 9
useggi 9
aṭlas 9
communication 9
turufit 9
tgemmunt 9
nnill 9
dihya 9
anzul 9
masters 9
yettwaru 9
yisuḍaf 9
wid-nni 9
tmacahutt 9
tiγra 9
irennu 9
yicinwaten 9
ye 9
idrisen 9
igelmimen 9
tidelsanin 9
maison 9
d-yekkren 9
acu-t 9
aksum 9
iḥemmlen 9
udi 9
awk 9
tafada 9
afella 9
intellectuels 9
wikitext 9
ugemmun 9
warrazen 9
etc 9
xf 9
ḍi 9
yicawiyen 9
aqeddac 9
azegzaw 9
wawras 9
yesɛu 9
leɛwacer 9
temsilt 9
amectuḥ 9
ttarun 9
ababat 9
bien 9
yifen 9
mḥand 9
tehri 9
yeččur 9
uγmis 9
d-wwin 9
ayad 9
iban-d 9
tmaheγt 9
mellal 9
anfa 9
mgaraden 9
segwasen 9
d-tewwi 9
tasemhuyt 9
iɛeggalen 9
tagrumma 9
imuren 9
taɛlayant 9
lɛarbi 9
leqvayel 9
refden 9
entre 9
yerra-t 9
issegwassen 9
yefγen 9
d-teffeγ 9
tγerma 9
tilibizyu 9
tidak 9
gret 9
ons 9
amagnu 9
salima 9
shakespeare 9
ttemsefhamen 9
belɛid 9
meqren 9
x-wiki 9
ɛisi 9
yessawal 9
igerzen 9
tawrat 8
ammar 8
ibaburen 8
friedrich 8
azayez 8
ɛecṛa 8
tameskant 8
tilufa 8
unẓul-agmuḍ 8
uswir 8
imensi 8
lgaz 8
riγ 8
guerre 8
lwelha-nsen 8
d-tlul 8
afus-is 8
nwala 8
ɛeddan 8
dali 8
yeffγen 8
taγerfant 8
azarug-nnes 8
mark 8
imesdurar 8
yemḍebbren 8
kusta 8
bdant 8
es 8
nnaγ 8
yezzi 8
inuda 8
tuγalin 8
ugaden 8
fehmen 8
iγil 8
lateṛ 8
yiγallen 8
mbaɛd 8
d-yettilin 8
igrawen 8
zund 8
tesγunin 8
anna 8
aslem 8
tennerni 8
yuγen 8
tadmayt 8
agzam 8
yufraren 8
isli 8
lmitra 8
walim 8
menguellet 8
igraγlanen 8
ttalasen 8
yečč 8
dduṛus 8
leqhawi 8
wureγ 8
igliziyen 8
iγerfan 8
yesdukel 8
manṣur 8
yigenni 8
ṣṣeḥra 8
rregmat 8
iɛeddi 8
anazur 8
sbedden-d 8
mucaɛ 8
aniṭij 8
imeẓla 8
ṛṛay-is 8
nnaγen 8
yeqqar-as 8
association 8
pop 8
nger 8
daymi 8
tiwilayin 8
awi-d 8
ulac-it 8
inadi 8
yeffren 8
ḥamid 8
teqqur 8
osaka 8
aru 8
pise 8
tagmat 8
populaire 8
umennuγ 8
del 8
axatar 8
yuγal-ed 8
wagarsafen 8
tesɛedda 8
ɛebdellah 8
meskin 8
tezrawin 8
isekles 8
tluled 8
uggar 8
mechuren 8
leqraya-s 8
yettnadi 8
comité 8
ighil 8
leɛmer-is 8
numidia 8
kurdistan 8
fehhmen 8
achab 8
tamegdayt 8
ggeγran 8
d-acennay 8
afen 8
tibeskert 8
yeldi 8
ffγen-d 8
ainsi 8
yettbeddil 8
nettaru 8
amtawa 8
icinwaten 8
d-iqerben 8
uqerruy-is 8
mucaεen 8
afarsi 8
d-ufan 8
union 8
jacques 8
wanect 8
tinegwa 8
mhidi 8
ajdir 8
yuzen 8
imtiwgen 8
yimalas 8
ddun 8
tibaltiyin 8
talast 8
tamiwin 8
tullist 8
ginya 8
talsant 8
yebḍan 8
arami 8
yiman-nnes 8
twaγit 8
tneqlet 8
wesγan 8
tam 8
tufga 8
axxam-is 8
théorie 8
wali 8
imenzayen 8
nns 8
irwel 8
icelḥiyen 8
imelyaṛen 8
timizar 8
été 8
yebwid 8
d-yuran 8
uggug 8
anbaṭi 8
lan 8
yessufeγ-d 8
mac 8
anabad 8
ṭṭerk 8
asusru 8
yeǧǧ 8
iqqimen 8
tnekkit 8
jersey 8
tirga 8
usagen 8
iv 8
yaggi 8
asuri 8
rumanya 8
iman-nnes 8
usawen 8
tezlatin-is 8
ijehden 8
ayfus 8
ujemmal 8
urɛad 8
ačer 8
ttuγ 8
dujembeṛ 8
gar-as 8
tnaẓurt 8
amaray 8
krim 8
cas 8
von 8
ddunnit 8
yillel 8
html 8
idder 8
yeccna 8
karim 8
teswiɛt 8
ɛmeṛ 8
lebḥeṛ 8
umar 8
asertatu 8
amasiḥi 8
vres 8
iẓri 8
ɛawden 8
tafṛansist 8
d-uran 8
aɛririǧ 8
deg-wuseggas 8
cciɛa 8
tadrimt 8
taqacuct 8
uzgen 8
tasekkurt 8
tsuta 8
music 8
minnesota 8
ccin 8
d-wwḍen 8
lxiq 8
yisura 8
irefden 8
limarat 8
tmellalin 8
rika 8
europe 8
anfaras 8
yesser 8
aɛeqqa 8
igelliden 8
dalil 8
imaslaḍen 8
tigzi 8
règles 8
isema 8
uγerbaz 8
sεan 8
d-rren 8
iγeblan 8
aqlaγ 8
γar 8
tnezzut 8
timudmin 8
weekly 8
udlis-is 8
adlis-is 8
kel 8
azger 8
bedden 8
officiel 8
raced 8
isem-nnes 8
yiγes 8
wallaγ 8
amerruk 8
tetteki 8
culture 8
bolivia 8
zgan 8
tama-yagi 8
rcd 8
taγara 8
anect-nni 8
uγal 8
dos 8
teγzef 8
ansayen 8
uxeddim 8
zeddγen 8
yettemcabin 8
tiregwa 8
nγan-t 8
yerran 8
yettwaḥsab 8
atunsi 8
sakk-in 8
bella 8
iziriyen 8
mon 8
alalmani 8
anwa-t 8
taftilt 8
tanẓulant 8
wis-sin 8
ifassen-is 8
tmiḍi 8
lmizan 8
hiempsal 8
tmenḍawt 8
vie 8
mellul 8
afran 8
teqqar 8
ccetwa 8
ulamek 8
kuba 8
talatinit 8
busɛada 8
tnekra 8
imelyunen 8
asent 8
aklan 8
ilmaten 8
tazrirt 8
wekfadu 8
tasaft 8
smaɛil 8
iqqar 8
weṭlas 8
lɛasker 8
snen 8
batent 8
ttwassnen 8
afir 8
constitution 8
imedduren 8
qubrus 8
tamirant 8
yezgaren 8
tṣ 8
sciences 8
ageldan 8
mara 8
taferka 8
iɛlayanen 8
yirgazen 8
azeggaγ 8
leɛqed 8
tefranin 8
swayes 8
mer 8
yeččuren 8
yuzgan 8
yesnulfa-d 8
tṛuḥ 8
yextar 8
uqasi 8
comment 8
wilhelm 8
membre 8
sɛun 8
aγawas 8
ugzedu 8
maurice 8
ayi 8
d-yella 8
imrabḍen 8
aceṭṭaḥ 8
timmuzγa 7
atena 7
imeqṛanen 7
wejda 7
iqeddicen 7
tagrest 7
muqel 7
nernu 7
seg-mi 7
tesnakta 7
georges 7
yettali 7
nationale 7
rṛadyu 7
ifransisen 7
wugar 7
tilellit 7
tidukla 7
iswiren 7
fell-asent 7
anemlay 7
akukru 7
gouvernement 7
taweḍ 7
kkren 7
nesla 7
umussnaw 7
yesduklen 7
aferdis 7
yugar 7
tara 7
tamsetla 7
tudmisin 7
linux 7
yad 7
ssin 7
os 7
turda 7
isebtaren 7
ccbaḥa 7
imseγret 7
wučči 7
yelḥu 7
lqem 7
belize 7
tisamiyin 7
tidi 7
d-nger 7
ziland 7
je 7
aṭelyani 7
tawlaft 7
teqbucin 7
urdun 7
sid 7
yeḍra-d 7
world 7
albert 7
d-yezga 7
usenfar 7
kg 7
ḍfaren 7
iḍelli 7
tesfift 7
d-yekker 7
arbib 7
tisnat 7
baba-k 7
sumer 7
taneγraft 7
ikecmen 7
ttjaṛa 7
isenfaren 7
lwilaya 7
tefranṣiṣt 7
tazrawt 7
menγir 7
yaγ 7
yennaγ 7
negren 7
laṣel-is 7
yinjil 7
apache 7
isem-nsen 7
iselman 7
tal 7
ṣṣut 7
turart 7
yettuneḥsab 7
d-iteddun 7
yemut 7
vers 7
makken 7
tafidiralit 7
inalco 7
angeles 7
iḥemmadiyen 7
iqdec 7
lekwit 7
tazwart 7
jules 7
σumar 7
ilelliyen 7
leḥzen 7
tutlayt-agi 7
niqal 7
iẓeḍwan 7
musku 7
usarag 7
inzan 7
ccen 7
chef-lieu 7
wertilan 7
susa 7
taṛmist 7
dren 7
yeqwa 7
ukrayin 7
wunti 7
honcu 7
tettekki 7
umaḍan 7
tettuγal 7
yettemcabi 7
mesṭafa 7
uzawan 7
tenerife 7
d-inna 7
thomas 7
d-yili 7
tmacint 7
yufad 7
yettu 7
communiste 7
issinen 7
naru 7
senegal 7
yenna-yas 7
iswi-s 7
urǧin 7
taγult 7
kigan 7
d-yeqqar 7
xmir 7
ineslem 7
lbiḍa 7
usekkil 7
iseγẓanen 7
caesar 7
asutel 7
yessefken 7
tintalyin 7
amizur 7
γur-sent 7
benzart 7
yemxallaf 7
umellil 7
ɛamruc 7
kraḍt 7
asenfar 7
aγbalu 7
yemeslayen 7
yuklal 7
yettkemmil 7
afriwen 7
warraz 7
samir 7
menṣur 7
yeḍra 7
taggayt 7
yidzayriyen 7
asenfaṛ 7
γana 7
teγdemt 7
tamectuḥt 7
yesɛedda 7
maǧid 7
tawtemt 7
viii 7
tizi-ouzou 7
ɛemmi-s 7
ḍefren 7
temnaṭ-a 7
yegduden-agi 7
tmettut 7
d-gen 7
timelwi 7
moins 7
yeqqlen 7
hammam 7
aln 7
acengu 7
tebṛatin 7
nwember 7
wugur 7
tahrest 7
beγdad 7
tesdawiyin 7
ṭaqa 7
asammar 7
tezzin 7
lamaana 7
tafarest 7
kruwatya 7
tejmaεt 7
parti 7
imeẓyanen 7
tanaya 7
yikabaren 7
aqvayli 7
yettwalin 7
uyeḥya 7
vii 7
tamudi 7
semɛun 7
s-umata 7
temhazt 7
lexsara 7
wiki 7
tadayra 7
ikcem-d 7
yeǧǧer 7
taf 7
tgemmi 7
laɛyun 7
tdukliwin 7
umarir 7
d-yesnulfa 7
tisertiyin 7
remḍan 7
atmaten-is 7
base 7
encore 7
d-yettili 7
igi 7
imeksawen 7
tasehrest 7
flan 7
izmir 7
umezwaru 7
ttemlilin 7
lεarc 7
facebook 7
tcennu 7
qaren-as 7
watlas 7
lqella 7
uẓeṭṭa 7
yefyar 7
ksen 7
nev 7
truḥ 7
claymore 7
timuddirin 7
yesseqdec 7
ṛebεa 7
yeqqar-d 7
front 7
lburǧ 7
pulunya 7
snat-agi 7
science 7
tnegmuḍt 7
tettγimi 7
iǧǧa 7
mbarek 7
yis 7
d-ikecmen 7
cité 7
igujilen 7
wul-is 7
tiwsatin 7
ibedd 7
ẓren 7
yekkren 7
ḥesben 7
γaf 7
ccnawi 7
mathématiques 7
yedǧa 7
ṛebɛa 7
venezuela 7
irifiyen 7
yilsawen 7
wuṭṭun 7
bugarmuḥ 7
isuvyatiyen 7
yettura 7
iḥemlen 7
timad-is 7
tsawin-tserran 7
ibardan 7
agafataram 7
mysql 7
inna-yas 7
amyarru 7
isel 7
yexxdem 7
agrud 7
tazmalt 7
imeddukal 7
lḥerrac 7
tasertayt 7
lqedd 7
yewɛeṛ 7
d-yefk 7
σic 7
yettuseqdacen 7
tanaddalt 7
tteddren 7
gwt 7
côte 7
yegnan 7
gaz 7
sarameγ 7
tawala 7
telkin 7
anagrawan 7
isiwan 7
teqebṭit 7
tenna-d 7
aseklu 7
leswaq 7
xedda 7
yiqeddicen 7
joseph 7
tantaliwin 7
inagrawen 7
ik 7
maine 7
ugeffur 7
imeγriyen 7
anect-agi 7
ḍrifa 7
royal 7
usegmi 7
tel 7
iεedda 7
taγerfant 7
imezdaγen-is 7
yidsen 7
ḥekkun-d 7
terna-d 7
laksida 7
hugo 7
industrie 7
tanemmirt 7
mbeεd 7
temps 7
umecwaṛ 7
nnɛama 7
généralement 7
yimiren 7
iḍarren 7
tenzeggit 7
ilulufen 7
yettiki 7
ɛerḍen 7
igellil 7
izdeγ 7
waεraben 7
iḥulfa 7
isertiyen 7
liḥala 7
north 7
iminig 7
uzaglu 7
udjun 7
brtv 7
ẓeṛ 7
uday 7
yiwaḍiyen 7
iγellaten 7
tessaram 7
usan-d 7
talatint 7
tallit-agi 7
ttidirent 7
yimura 7
yebnan 7
ameddakel 7
bla 7
zwiren 7
nniγ-as 7
yimi 7
ger-asen 7
tewwura 7
wesnulfu 7
tettbeddil 7
tuli 7
waklan 7
organisations 7
msila 7
yesselmed 7
umḍan 7
userdas 7
d-yettak 7
lakul 7
d-yettasen 7
tiγimit 7
aqamum 7
ca 7
yettwaḥbes 7
tout 7
asuqel 7
ččad 7
car 7
sous 7
linguistique 7
uzamul 7
yelha-d 7
taṭerkit 7
leqrar 7
yezweǧ 7
ibγan 7
deg-es 7
yifassen 7
tmesgida 7
yessuter 7
ḥemlen 7
afrag 7
tmezgunin 7
nissin 7
ahilen 7
inumak 7
γezzifen 7
zemreγ 7
tuγaled 7
ken 7
yurra 7
ageldun 7
wizgan 7
wṛida 7
tameṭṭut-is 7
bitt 7
tokyo 7
tkebbanit 7
yimγan 7
umeskan 6
aẓekka 6
učči 6
algérien 6
yettusemman 6
werjin 6
leḥlu 6
malek 6
sam 6
beddel 6
awen 6
avant 6
liṭṭunya 6
izen 6
yesnulfu 6
fahd 6
ungal-a 6
malika 6
zi 6
allah 6
imudar 6
zzin 6
teẓraf 6
issaweḍ 6
umihi 6
akkenni 6
tesnerni 6
jennad 6
wled 6
meqqret 6
anar 6
ittwassen 6
ggten 6
ottawa 6
walmaniyen 6
ikamyunen 6
david 6
lewhi 6
territoire 6
d-nniγ 6
baja 6
ak-d 6
alarmi 6
luluf 6
yedlisen-is 6
officielle 6
ameddur 6
timuzγa 6
tadart 6
ulawen 6
spéciale 6
ṣur 6
aka 6
amenkud 6
teẓrigin 6
culturelle 6
t-naru 6
idiren 6
nefk 6
awraγ 6
taktabt 6
tettili-d 6
teklut 6
illel 6
imir-a 6
lɛerbi 6
illul-d 6
ukfadu 6
ccuhada 6
ḥabib 6
llufan 6
umezruy-is 6
grande 6
azeṭṭa 6
d-tenna 6
timecṭuḥin 6
american 6
rnun 6
ikemel 6
oubliée 6
ɛellam 6
xilla 6
idumen 6
tamacint 6
tteddu 6
izedγen 6
internationale 6
llin 6
kkan-d 6
yiseγ 6
djamila 6
uselmad 6
siwa 6
tamziγt 6
ouest 6
lekdeb 6
umaru 6
lkarimeyya 6
yeǧǧa-d 6
imrigen 6
γezzif 6
tamatut 6
tudsa 6
ttaγen 6
qlil 6
wetram 6
iṣunniyen 6
iniγem 6
salaḥ 6
tcennayt 6
d-taweḍ 6
tijelabin 6
ffeγ 6
tettusemma 6
mexluf 6
imurar 6
leo 6
muritanya 6
m'akken 6
lukan 6
tt-ttmeslayen 6
leqraya 6
yitri 6
yebɛed 6
tetten 6
yeḥka-d 6
qqaren-asen 6
tegnatin 6
patrimoine 6
ttmettaten 6
ifuyla 6
isefka 6
txeddem 6
birut 6
akabar-a 6
asmekti 6
nnid'en 6
icennun 6
seggas 6
ssinima 6
asuvyati 6
amnadi 6
peintre 6
iγ 6
arthur 6
ssawalen-as 6
tkarust 6
qqaṛen 6
unagen 6
berr'a 6
yiwwet 6
aẓi 6
terjentint 6
weglim 6
tafunast 6
tsenselkimt 6
timselleḥt 6
yimir-nni 6
lexḍer 6
faso 6
uṛumi 6
taγzut 6
sirṭa 6
pennsylvania 6
iwulmen 6
aγen 6
yimawlan 6
ayyes 6
yesnen 6
d-yefka 6
akk-en 6
yettekki 6
taklut 6
tbeddel 6
tewwid 6
projet 6
wegni 6
tama-ya 6
lexḍareyya 6
delhi 6
adlis-a 6
aussi 6
iwaken 6
sans 6
ifel 6
iwudam 6
yimeqqranen 6
wesγar 6
tespenyulit 6
central 6
yekker-d 6
go 6
aberrani 6
nezeh 6
teddunt 6
madi 6
publications 6
tessen 6
tilleli 6
ip 6
isalan 6
d-yessufeγ 6
yemmal-d 6
iẓuran-is 6
belaid 6
yesseγret 6
awezγi 6
lamer 6
honduras 6
yilugan 6
michael 6
nufi 6
tukkist 6
ulama 6
d-nenna 6
diri 6
nenna-d 6
afelsafi 6
iznaten 6
assegwass 6
yemmas 6
d-yura 6
pierre 6
isemmaḍen 6
amezgun 6
tif 6
tezyiwin-is 6
akal-is 6
autre 6
awḍen 6
ṭfen 6
aẓuran 6
umenzaw 6
yiniten 6
fken 6
tamagit 6
ttawin 6
uγelluy 6
ɛic 6
as-yini 6
idlisen-is 6
tuqqla 6
tfuk 6
taziri 6
chef 6
unicode 6
yers 6
wanida 6
mak 6
tamezgunt 6
ɛmara 6
mustapha 6
yeweḍ 6
itezzi 6
tasa 6
talit 6
imasayen 6
taseklant 6
cenwa 6
tameqqṛant 6
lbabur 6
taḥbult 6
janduba 6
langliz 6
tissas 6
tifelseft 6
tifeffeγt 6
amussnaw 6
lḥad 6
ixxamen-nsen 6
yidlisen 6
kul 6
ɛiraq 6
ummid 6
venus 6
deg-neγ 6
ministre 6
tamguri 6
weḥraz 6
malizya 6
anisa 6
yefru 6
yettwaxedmen 6
azerbijan 6
yessufeγ 6
tgeldunt 6
yettwabnan 6
neqqaṛ 6
texas 6
simal 6
depuis 6
in'as 6
uγref 6
itruski 6
yebdu 6
amalway 6
superficie 6
yerfed 6
lfarḥ 6
agelmim-a 6
akira 6
amaṭṭaf 6
iḥeddaden 6
iluγma 6
nijirya 6
sγuṛ 6
tefka-d 6
marie 6
d-yawi 6
iγsan 6
taɛkemt 6
tegnitt 6
tsuqilin 6
mechuret 6
wenissa 6
tmanaγt 6
tifrit 6
santiago 6
yesɛa-d 6
aseγẓan 6
imenγi 6
weḥd-s 6
sportive 6
slimane 6
yegra-d 6
ṭṭalyan 6
tighzert 6
yetṭfen 6
tayemmatt 6
aɛmiruc 6
wisconsin 6
sennig 6
tisuda 6
den 6
kobe 6
ggtent 6
ywiet 6
usiweḍ 6
taǧnant 6
ḥemmlen 6
yeγli-d 6
qqnen 6
wawal-agi 6
imira 6
ssexdamen 6
yalla 6
bran 6
hawaii 6
tayri-s 6
ḍfes 6
william 6
asalu 6
weɛraben 6
mlilen 6
kamel 6
deffir-s 6
leḥṣab 6
twaccult 6
taγ 6
ihudd 6
sebεa 6
afessas 6
ifran 6
yizan 6
ttesriḥ 6
ilemzi 6
ulli 6
tabratt 6
madame 6
rio 6
beddlen 6
d-ttasen 6
iwalan 6
ternu 6
snulfan-d 6
moderne 6
sbedden 6
teselwit 6
uqarruy 6
tunsibt 6
indiana 6
tmal 6
xesren 6
fasu 6
économie 6
yettnadin 6
iseggassen 6
blue 6
ddel 6
yesnerni 6
s-yefkan 6
donc 6
taγiwant 6
informatique 6
benyan 6
oasis 6
alugen 6
nessaweḍ 6
tigraγlanin 6
album-nnes 6
aspenyuli 6
termist 6
arab 6
tiknariyin 6
taneqlet 6
twacculin 6
yes-sen 6
laṣel-nsen 6
tutrimin 6
nwen 6
d-yufraren 6
ṣṣyada 6
yefka-as 6
amenzawi 6
agḍiḍ 6
d-yettmeslayen 6
california 6
asagen 6
ifehhem 6
iberraniyen 6
usseqdec 6
ixedmen 6
xlifa 6
agim 6
tettwali 6
tjerrumt 6
agerruj 6
did 6
ixeddamen 6
bayern 6
محمد 6
taqṣebt 6
walbumen 6
tirebbaɛ 6
liberté 6
yarnu 6
wakal-nsen 6
g-is 6
fkan-d 6
haute-normandie 6
tfelwit 6
ṛṛuḥ 6
tmeṭṭut-is 6
aqli 6
iss 6
atnan 6
tetteddu 6
degsen 6
tafrawt 6
lesnin 6
anaddal 6
teǧhed 6
d-yesbedden 6
nuγal 6
tamaslaḍt 6
columbia 6
temda 6
matoub 6
lall 6
teḥdayin 6
wacemma 6
amda 6
wergaz-is 6
iban-ed 6
by 6
tesɛu 6
isell 6
imqeddes 6
imlal 6
aḥeqqani 6
telmas 6
ussan-a 6
gren-d 6
missouri 6
aγlan 6
tigariwin 6
ismal 6
vava-s 6
kkren-d 6
tamtilt 6
amray 6
tallalit 6
wezniq 6
illu 6
nγen 6
nettini-as 6
wurfan 6
gaya 6
wakraren 6
wungal-is 6
ukk 6
deqqal 6
azwel-is 6
smenyafen 6
nettwali 6
arris 6
acebbub 6
cercal 6
asali 6
tufa 6
iεeẓẓugen 6
taddert 6
isekla 6
useklu 6
wuγur 6
yiγil 6
amazigh 6
études 6
projets 6
tceqqufin 6
aγyul 6
igmamen 6
γγaren 6
uccen 6
izgaren 6
tamezwart 6
uqcic 6
cms 6
bordj 6
tafulmant 6
tiberkanin 6
asensu 6
wuzzal 6
teγra 6
tγuri 6
azawan 6
tensa 6
tarewla 6
nγer 6
almad 6
anezwi 6
tegrawt 6
fares 6
hauts-de-seine 6
tabrat 6
taswiɛt-a 6
lferḥ 6
nat 6
ikka-d 6
yettwanṭaq 6
colline 6
imeḍqan 6
as-fken 6
tekkes 6
taswist 6
ussan-agi 6
horizons 6
budapest 6
organisation 6
tlul-d 6
lburj 6
sis 6
tuddsiwin 6
tfesna 6
tettezzi 6
akufi 6
virginia 6
xeddment 6
teẓra 6
tban 6
d-akken 6
tzemreḍ 6
seman 5
commune 5
tasili 5
sarkozy 5
tameddurmant 5
accawen 5
minor 5
ttmeslayent 5
usebter 5
makuda 5
afelsuf 5
amazray 5
allaγ-is 5
nxemmem 5
tiḥuna 5
garasent 5
mellal-xnifra 5
tanglizt 5
d-acu 5
mehenni 5
tajerrumt 5
taẓuri-a 5
evreux 5
yemrabḍen 5
gaius 5
yeǧǧaṛ 5
axemmem 5
yessusem 5
rr'adyu 5
atni 5
aḥeddad 5
ifka-d 5
tasnakta 5
leḥcawec 5
igun 5
umahil 5
isuntimen 5
tfunast 5
bujember 5
istambul 5
kopenhagen 5
ikki 5
ilmayen 5
imenẓawen 5
ikerri 5
mad 5
programmes 5
kingston 5
asnerni 5
yeffγed 5
ṭṭurk 5
wesmel 5
tumart 5
cbaḥa 5
yoshizawa 5
ismilen 5
ɛabdelɛaziz 5
timezrit 5
lǧil 5
tanzanya 5
yegla-d 5
tutlayt-nni 5
temgarad 5
amzeruy 5
lqeddafi 5
zzat 5
rené 5
imesli 5
lγezlan 5
yettarran 5
uglan 5
nemmeslay 5
tacenwit 5
nwembeṛ 5
idles-nsen 5
mechuṛen 5
awal-agi 5
iεac 5
ldin 5
tilin 5
anekcum 5
ism 5
larbi 5
nesɛa 5
ikilumtren 5
wemgerrad 5
timeqqṛanin 5
assmi 5
tini 5
loire 5
yeḍrisen 5
udus 5
ɛyan 5
taγelnawt 5
tawat 5
wayetma-s 5
général 5
twilayin 5
scientifique 5
yettwanγa 5
ssulin 5
zerrad 5
nettaru-ten 5
taceqquft 5
amenkad 5
imnayen 5
lzayer 5
aḍu 5
amnen 5
cervantes 5
sɛeddan 5
deq-s 5
iḍaren 5
wemsefham 5
mugadur 5
rap 5
tanfalit 5
tyemmatt 5
yif 5
ǧǧan 5
yuweḍ 5
tefrant 5
tillas 5
iniγman 5
lfakya 5
tisednan 5
tzuri 5
timeẓrit 5
wakli 5
yennuγ 5
indunisya 5
ifniqen 5
izenqan 5
azezzu 5
uzwaw 5
talγuγa 5
ammizwer 5
leɛqel 5
γer-s 5
tuffirt 5
tettiki 5
azaglu 5
icewwiqen 5
leεmer-is 5
yifaṭimiyen 5
ameẓẓyan 5
azayri 5
yawin 5
st 5
umgarad 5
yettalas 5
nerr 5
εeddan 5
asammer 5
yeddu 5
أولاد 5
tiytiwin 5
unies 5
iγriben 5
tarjentint 5
ssya 5
homo 5
mechuṛ 5
tneqlin 5
tegmat 5
révolution 5
meẓẓiyen 5
ifra 5
vincent 5
portugal 5
γir 5
leɛyun 5
fessusen 5
parlement 5
lunis 5
ifurkawen 5
tezmart 5
yewwiḍ 5
taglest 5
illulen 5
massa 5
droit 5
d-tewweḍ 5
nudan 5
caḍen 5
teγlamin 5
asarag 5
ispenyuliyen 5
irebbi 5
yas-d 5
sebastian 5
wungal 5
tebγu 5
uṭṭunen 5
iswiyen 5
aix-en-provence 5
asemlili 5
ṛuḥ 5
taxlijt 5
ubelluḍ 5
yumen 5
izuran 5
inadiyen 5
terga 5
mustafa 5
γlin 5
nicolas 5
yiran 5
iǧan 5
gan-d 5
yessarem 5
bedlen 5
urfan 5
enfants 5
gant 5
bennun 5
yimeẓla 5
mal 5
melbourne 5
letnayen 5
timeddursa 5
d-iteffγen 5
tẓa 5
timest 5
ttafen 5
d-nernu 5
ismis 5
taṛumanit 5
twilayt-a 5
taneflit 5
nationalité 5
ifaq 5
james 5
yefraḥ 5
qayrawan 5
ssirilik 5
kessen 5
yilef 5
aggaγ 5
ḥassan 5
lḥebb 5
lekbir 5
faṭima 5
yeṭṭfed 5
lumur 5
mkan 5
wawal-nni 5
ifrensisen 5
amakken 5
tamettut 5
yeqjan 5
iferḥunen 5
tuγal 5
γeryan 5
débat 5
terre 5
iḥesnawen 5
classes 5
asewzel 5
ini-as 5
où 5
aɛzizen 5
livre 5
γer-sen 5
kunwi 5
yufan 5
nafiɛ 5
umaynut 5
ssalin 5
tegnit-agi 5
yemcac 5
izerzer 5
tmurt-nni 5
iman-iw 5
waydeg 5
tewsit-a 5
tuyat-is 5
abalti 5
tuγalin 5
iǧadarmiyen 5
igerrez 5
wayagi 5
rebḥen 5
tugi 5
hassi 5
isufγ-d 5
d-yeglan 5
d-ilul 5
tegmatt 5
yiγrem 5
yid 5
leqwanin 5
takatalant 5
dris 5
centre-est 5
lengliz 5
rennes 5
ttwarun 5
yeɛnan 5
ssaramen 5
aγerbi 5
lemdeyyet 5
yiγzer 5
urgaz-is 5
texleḍ 5
arkti 5
yisekkilen 5
voivodeship 5
yali 5
agdud-is 5
arrazen 5
tezdeg 5
techniques 5
idduklen 5
ilili 5
lɛaddat 5
ugafa-umalu 5
tasfift-is 5
zayed 5
igrigiyen 5
usun 5
xalifa 5
xii 5
uxxam-is 5
yettwasemman 5
wiyad 5
wehmen 5
iffeγ 5
tettmeččay 5
snernin 5
nesεi 5
izan 5
amejjay 5
ten-id-iqerben 5
asaka 5
commerce 5
idum 5
igumma 5
iḥekku-d 5
tudmist 5
imeẓliyen 5
kkra 5
d-snulfan 5
tuddert-is 5
nili 5
weqbayli 5
yessefra 5
lbumba 5
tiktiwin-is 5
inurar 5
tazla 5
ugafa-agmuḍ 5
tamuγli 5
ttmeslayen-tent 5
socialiste 5
maghreb 5
yemtiwgen 5
péninsule 5
tallunt 5
qarṭaj 5
iṛumiyen 5
tfelseft 5
twennaḍt 5
tamlilt 5
yerna-d 5
tussnant 5
tasiwelt 5
arusrid 5
afriqi 5
tuksa 5
buɛendas 5
adeg-aγella-s 5
yettusemma 5
tqacuct 5
d-nnan 5
yettnaγen 5
laṛebɛa 5
isla 5
ville 5
imussnawen 5
frawsen 5
tiṭ-is 5
yilfan 5
tengalin 5
uγanim 5
yis-sen 5
iwimi 5
agejdi 5
umgaru 5
agrudem 5
unzul 5
taγanimt 5
européenne 5
langue 5
tufγa 5
ukuẓ 5
ssaɛa 5
taγennawt 5
zzin-d 5
yekk 5
ḥebsen 5
lyazid 5
ukufi 5
abdelkrim 5
fatma 5
inebgi 5
ilem 5
iseggasen-a 5
d-yufa 5
lxuf 5
proposer 5
aḍar 5
temxallaf 5
tadekkart 5
tamedrart 5
nadi 5
lmenṣuriya 5
zyama 5
ses 5
izamulen 5
lber 5
ittekki 5
dong 5
igiman 5
tecbeḥ 5
allen-is 5
tarennawet 5
wagim 5
bordeaux 5
iritirya 5
note 5
mis 5
timdewwert 5
teqqar-d 5
nefren 5
amur-is 5
poésie 5
d-yelli 5
awtem 5
ttaken-as 5
message 5
aselkim 5
ramḍan 5
ticraḍ 5
taflist 5
uneγlaf 5
chicago 5
iḥus 5
teɛreḍ 5
anagi 5
ahaggar 5
greγ 5
luqt 5
usrid 5
ɛenṭar 5
d-yegran 5
lγar 5
tatlayt 5
azaγar 5
neqqar-as 5
lewḥuc 5
tigejdit 5
yettunefk 5
yessi-s 5
amer 5
institut 5
d-tekcem 5
ohio 5
grimm 5
ixedem 5
aγrib 5
qqimen-d 5
wemda 5
ifγulen 5
ṣa 5
aglim 5
draa 5
tt-id 5
wemgaru-nni 5
ayeffus 5
temguri 5
wezger 5
telqey 5
d-nuγal 5
ileḥḥu 5
démocratie 5
beijing 5
teḍru 5
tmasiḥit 5
dujenbir 5
yinuẓar 5
ttwaɛezlen 5
meryem 5
alsan 5
tafna 5
leḥris 5
amtiweg 5
kecment 5
itteffeγ-d 5
tsuda 5
yegguma 5
testenya 5
wemγar 5
way 5
tefrensit 5
γlayen 5
fernen 5
sat 5
terreḍ 5
lmuziga 5
tikkelt-a 5
terza 5
tbedd 5
yeḥman 5
tfinaγ 5
ajmaɛ 5
larbaa 5
d-tili 5
assen 5
tutlayt-nsent 5
amaslaḍ 5
nefhem 5
tesselmad 5
umeskar 5
yaki 5
kyoto 5
waṭṭan 5
amuγ 5
yunagen 5
ssutren 5
yedren 5
wili 5
issefk 5
umγar 5
yimeqranen 5
neẓri 5
tessenz 5
rêve 5
taqsiṭ 5
tamnatt 5
yesskan-d 5
alibi 5
yales 5
yeffer 5
wagur 5
unelmad 5
iger-d 5
tennulfa-d 5
garde 5
yeḥwaǧ 5
programme 5
tagwnitt 5
yidammen 5
information 5
tantalyin 5
acruf 5
tifelwa 5
ibki 5
usa 5
ssebbat 5
yemdukal-is 5
jackson 5
lulen 5
ittwali 5
ityupya 5
meqqar 5
tilifun 5
structure 5
irfed 5
mḥemmed 5
mxallafent 5
yessebded 5
timeslayin 5
ordre 5
tettunefk-as 5
usemmiḍ 5
lǧehd 5
axaṭar 5
timzizelt 5
linguistes 5
yekfu 5
yenγan 5
iggi 5
town 5
musée 5
mohand 5
ineγ 5
yettnaγen 5
n-sen 5
wegdud-is 5
souk 5
iniγ 5
uγalent 5
rzin 5
nnger 5
tameṣrit 5
timliliyin 5
uddis 5
at-yiraten 5
tableau 5
tiqbayliyen 5
ifellaḥen 5
tamunt 5
baḥrayn 5
tilatiniyin 5
britanya 5
axater 5
ddemma 5
uqellal 5
lqaεa 5
mcb 5
piaf 5
pekin 5
inisi 5
ayer 5
grw 5
barra 5
hanoteau 5
weγref 5
wiyiḍ 5
asigna 5
inna-d 5
ibeṛṛaniyen 5
tezdeγ 5
yessuli 5
meden 5
mau 5
westeros 5
yuḍen 5
astirf 5
igarawen 5
ucewwiq 5
genre 5
uffir 5
richard 5
bdun 5
tesdukel 5
tadersi 5
maggu 5
amyurar 5
yessin 5
sawḍen 5
aladγa 5
amiran 5
d-yerr 5
sseqdacent 5
ayγer 5
almaniyen 5
namibya 5
d-yessebded 5
yečča 5
as-nsemmi 5
tefyirt 5
mo 5
izger 5
andré 5
yettwagdel 5
lmina 5
idammen-is 5
teγli 5
tẓallit 5
tanfusit 5
gsm 5
bufarik 5
seddis 5
igza 5
mechur 5
yeḥrez 5
ibeɛɛac 5
acebḥan 5
sumam 5
tentala 5
autonomie 5
tnezzawt 5
sɛin 5
dialecte 5
tifrusyawiyin 5
ismawen-nsen 5
tamerkantit 5
yessegrew 5
ussewwi 5
taqahirt 5
tregwa 5
iqabel 5
temnatt 5
turin 5
umenzay 5
yiɛebbasiyen 5
newweḍ 5
yessewhamen 5
leɛrac 5
taddart-aggi 5
faire 5
ministère 5
yemmeslay 5
usali 5
umezdaγ 5
ččina 5
i-tt 5
d-uγalen 5
quartier 5
aterras 5
sani 5
asefrek 5
bugerra 5
ran 5
aẓeffun 5
zenzen 5
agensas 5
icerken 5
tuccḍa 5
agemmun 5
d-qqimen 5
d-yeffeγ 5
vienne 5
riyaḍ 5
tessekcem 5
yeẓri 5
ameḥbus 5
anect 5
uγris 5
victoria 5
jeddi-s 5
ḍrant 5
yevda 5
yeɛzem 5
lexṣas 5
wul-iw 5
leurs 5
tebrek 5
ttusemman 5
yilmeẓyen 5
yeɛqub 5
affar 5
international 5
averroès 5
asebter 5
abagu 5
libération 5
kkaten 5
lh'al 5
anbaz 5
ittnadi 5
teqcicin 5
teglest 5
ugafa-wegmuḍ 5
yeqqim-d 5
ilha 5
toronto 5
iseddagen 5
meṛṛuk 5
no 5
yeγli 5
udlis-a 5
adrim 5
wordpress 5
d-qqaren 5
yesskanay-d 5
tikal 5
asenǧaq 5
taḍsa 5
luḍa 5
afukan 5
itij 5
was 5
neg 5
iruḥen 5
afilusuf 5
wwḍen-d 5
qedcen 5
d-yesnulfan 5
teddu 5
tafrant 5
yimagraden 5
climat 5
ittara 5
hollywood 5
yelmaten 5
tafarka 5
teqbreb 5
indépendant 5
manga 5
géométrie 5
tawennaḍt 5
wedrim 5
allaγ 5
tageldant 5
uqerruy 5
imezdaγ-is 5
mḥenni 5
itetten 5
adda 5
imseḍru 5
teḍṣa 5
leqdicat-nnes 5
aggay 5
muḥya 5
defla 5
hicem 5
d-keccmen 5
usunen 5
butan 4
ɛemman 4
teslullit 4
cciɛa-nnes 4
tumẓabt 4
umezwaru-nni 4
tlemẓit 4
imzenza 4
arabe 4
mendas 4
fifa 4
mbaεd 4
taxliǧt 4
ikariben 4
amegday 4
noir 4
iγermanen 4
wenẓul-utaram 4
yedles-nsen 4
lmut-is 4
tettaγ 4
wardya 4
hommes 4
umnakel 4
veulent 4
yedran 4
yimeγnasen 4
tilli 4
tmawalt 4
tga-d 4
kemlen 4
kecmen-d 4
ttwabnan 4
tatut 4
dépêche 4
usensu 4
leɛlu 4
mg 4
usarug 4
sɛada 4
neγri 4
ccḍeḥ 4
d-yewwin 4
ordinateur 4
tḥudd-it-id 4
edith 4
ammaïu 4
yebter 4
abdelaziz 4
snernan 4
tid-nni 4
nniγ 4
tigurarin 4
upitṛul 4
rebrab 4
umellal 4
turat 4
yinsleman 4
yenzan 4
tamynut 4
yiselman 4
ɛemmi 4
uzemz 4
aten 4
teswist 4
lmersa 4
yussa-d 4
abdelqader 4
yen 4
ad-as 4
teḍra-d 4
taxon 4
tibḥirt 4
ulin 4
mebazɛa 4
iweḥciyen 4
timenγiwt 4
usnerni 4
yennuγen 4
isurdiyen 4
isseggasen 4
tẓuryin 4
yettaǧǧan 4
tkatut 4
iffassen 4
assegwas 4
urumi 4
lfekra 4
iγersiwen-a 4
terra-t 4
umenkud 4
imitren 4
diplôme 4
dover 4
nruḥ 4
qaṭar 4
tegwnatin 4
taḥar 4
tenqes 4
d-tella 4
d-yusa 4
yejdi 4
petite 4
ḥrez 4
tikebbaniyin 4
yekkad 4
yimenẓawen 4
ẓrin 4
urgal 4
aha 4
lebyar 4
lɛenqa 4
lfeṭṭa 4
amussnak 4
itekniyen 4
amḍiq-is 4
wallaγ-is 4
tadigant 4
aγlif 4
tezmel 4
wensay 4
issegwasen 4
yudan 4
uqbu 4
ugadeγ 4
tamyarut 4
γiwanin 4
tefk 4
imelayn 4
tebbest 4
idraren 4
uḍar-is 4
agawa 4
rẓan 4
tarennawt 4
teqbel 4
ouverte 4
inu 4
tasegbart 4
imawalen 4
umeγras 4
zeden-tt 4
yusan 4
tfekka-nnes 4
yesserwel 4
harare 4
iḥudd 4
tayeffust 4
sdis 4
yinni 4
yeglan 4
tignewt 4
floyd 4
t-yerran 4
tilisa-s 4
tullya 4
agrawi 4
dacu-t 4
yeṭṭafaren 4
tagrurt 4
tmendawt 4
imecṭuḥen 4
jean-marie 4
yesεu 4
yimarikaniyen 4
ṭṭef 4
zeddigen 4
ddmen 4
taγiwant-aya 4
qqimeγ 4
lbak 4
beṭṭu 4
mid 4
iqbuṛen 4
lehmum 4
années 4
ɛririǧ 4
aneggaru-agi 4
confédération 4
yettfuk 4
bo 4
song 4
yetteki 4
textes 4
ttbeddilen 4
iferrawen-is 4
asefk 4
yeḥwaǧen 4
iẓer 4
gafṣa 4
daxel-is 4
taselmadt 4
ittxemmim 4
tzemmurt 4
yeγran 4
tiftisin 4
d-yessekcem 4
wass-mi 4
d-yeǧǧa 4
itteg 4
ijja 4
nantes 4
mtld 4
fuɛad 4
yirden 4
adris 4
cilmun 4
ḥend 4
sehlen 4
tafiniqit 4
caɛbi 4
bleu 4
afus-ik 4
d-nawi 4
telhu 4
weγlan 4
cennun 4
démocratique 4
nedda 4
perdu 4
twekka 4
tselwit 4
kansas 4
tamawalt 4
taddart-nsen 4
aṭerki 4
aγrib 4
album 4
tagrigit 4
yiminigen 4
aḍebsi-ines 4
azru 4
tigwnatin 4
isin 4
yecfa 4
armud 4
ḥewwa 4
amm 4
ruḥeγ 4
gwatimala 4
yess 4
ɛebdelqader 4
lebher 4
aγilif 4
xali 4
akid 4
données 4
iweẓla 4
with 4
tqaɛet 4
tsukan 4
igerrujen 4
wazalen 4
pari 4
imeshanayen 4
ttafken 4
ṣaleḥ 4
anternet 4
ṣṣifat 4
timarikaniyin 4
inek 4
tmeγriwin 4
izmawen 4
tanfust 4
aḥbub 4
taftist 4
humide 4
taγawsa 4
tacacit 4
ikemlen 4
igersalen 4
tedda-d 4
swaswa 4
tebγiḍ 4
tgeldiyin 4
lettres 4
emmak 4
yellad 4
littérature 4
tiknaṛiyin 4
lfen 4
jiniral 4
tiberraniyin 4
sufella-yagi 4
ṣumal 4
teldi 4
tukyanust 4
waki 4
lḥamu 4
uzref 4
star 4
ijufar 4
yesteqsa 4
yeγra 4
wwin-t 4
wulac 4
uẓayer 4
ksar 4
tafr'ensist 4
tennessee 4
tesnilsit 4
ilmezyen 4
yeɛdel 4
leḥsab-is 4
jjan 4
wagar-asent 4
yemyura 4
γur-es 4
language 4
film 4
d-ffγen 4
zeddig 4
tewwi-tt 4
akuc 4
géographie 4
ssbeḥ 4
wejden 4
wannecta 4
tezzi 4
aman-nnes 4
ssiwlen 4
ifkan 4
uγmis 4
tebdu 4
atlantik 4
عبد 4
tome 4
afṛansi 4
aɛziz 4
tikliwin 4
ugdil 4
tedduḍ 4
ineγmasen 4
lbal 4
yeγlin 4
inn 4
yemsiwlen 4
necraḥa 4
south 4
ufgan 4
amnekcem 4
lḥerma 4
anzaren 4
nahyan 4
tasudut 4
acciwen 4
d-yettawḍen 4
julius 4
tamcumt 4
chacun 4
d-yeqqaren 4
ferdinand 4
lxilaf 4
yettaǧǧa 4
art 4
ms 4
wexxam-nsen 4
tneslemt 4
ixelqen 4
aman-is 4
teḥrez 4
tasmekta 4
wadday 4
tuyat 4
ḥulfun 4
lemri 4
yezger 4
meftaḥ 4
zdγen 4
dderya 4
taviani 4
taswiɛt 4
asia 4
taγuct 4
tixxutert 4
yidisken 4
musique 4
zun 4
amezwar 4
basset 4
tamsalt-a 4
rum 4
xeddem 4
taẓeyt 4
traduction 4
iṣurdiyen 4
watas 4
tettmeslay 4
leqwanen 4
inaṣliyen 4
west 4
d-llant 4
icebba-yi 4
lexḍar 4
yemmden 4
liser 4
même 4
léxique 4
tlemsin 4
tt-izedγen 4
inegger 4
tmanya 4
queen 4
fort 4
yebbwi 4
irkwelli 4
beida 4
mecṭuḥet 4
wawal-is 4
tiddi 4
necfu 4
tessaγ 4
sanda 4
abrid-agi 4
tettawi 4
belleville 4
taddart-agi 4
iṛuḥen 4
ssif 4
tettarew 4
tfinaγ 4
amecras 4
asmil 4
donner 4
hala 4
tahar 4
tatrat 4
inigi 4
tiγerbiyin 4
tγiwant-nni 4
ajernan 4
honolulu 4
warzazat 4
azarug-ines 4
tiban 4
ouzou 4
d-ters 4
tigelda 4
yebriṭaniyen 4
t-yeǧǧan 4
belfast 4
tfaskiwin 4
masqaṭ 4
tla 4
muqleγ 4
muḥsen 4
uyaḥya 4
d'oran 4
iqerray 4
leqdic-nnes 4
tawla 4
tesfifin 4
asmagnu 4
yimawlan-is 4
yettnerni 4
pink 4
tmenγest 4
taqqa 4
tumast 4
club 4
nuit 4
belgrad 4
ddwa 4
d-addal 4
gabun 4
asegzi 4
agdudan 4
yiferrugen 4
fiḥel 4
d-yessumer 4
iserbiyen 4
nnernan 4
teγiwant 4
imaṣriyen 4
d-iffeγ 4
iduba 4
tenglizt 4
mlal 4
ilhan 4
yeldi-d 4
tenniḍ 4
taẓnagt 4
d-tebda 4
yemḍel 4
yebded 4
ttarran 4
oslo 4
takrura 4
yiberr'aniyen 4
tebbwi 4
tikarḍiwin 4
kabila 4
usebded 4
diri-t 4
tecrek 4
élite 4
isbedd 4
xxi 4
teqqar-as 4
γezifen 4
ableγ 4
yenna-asen 4
tegzirt-a 4
colonel 4
taspanyulit 4
tmedyazt-is 4
systèmes 4
lqed 4
for 4
anmezray 4
lapologne 4
butswana 4
d-amyaru 4
femmes 4
imi-d 4
d-yeddan 4
yidisan 4
tεedda 4
zin 4
swiss 4
awtul 4
idra 4
yebγi 4
welqadi 4
imzedaγen 4
gergur 4
ile-de-france 4
susru 4
tiririt 4
uma 4
taslullit 4
asayes 4
conseil 4
dimecq 4
tineggura 4
uk 4
morbihan 4
tegdudyin 4
isaffen 4
ǧaɛut 4
crifa 4
tamazight 4
ttraḍ 4
azalen 4
taǧǧalt 4
izzan 4
orléans 4
aman-nni 4
dra-tafilalt 4
ulili 4
umaziγ 4
udfir 4
tarrayt 4
igarzen 4
tesgilt 4
yettγimi 4
style 4
terwel 4
zambya 4
yennuγen 4
kifkif-iten 4
irebraben 4
nerra 4
wassaγ 4
tamessartut 4
birmanya 4
timettiyin 4
logique 4
urugway 4
fas-meknas 4
ḥerzen 4
yeεreḍ 4
tgezdut 4
d-yeǧǧan 4
tellad 4
fuṛar 4
rouen 4
adigan 4
tigejda 4
mgal-nsen 4
ismun 4
tabelluḍt 4
place 4
izerfan-is 4
more 4
tgellidt 4
ussananen 4
iwzellagen 4
warazen 4
d'alger 4
tesselmed 4
aladra 4
uksum 4
ineḍfaren 4
doit 4
temlilit-agi 4
ṭṭuqqten 4
asegmi 4
wellington 4
tadart-is 4
uganda 4
izdi 4
uddun 4
tuγalin-is 4
nniya 4
iqqen 4
srabes 4
atlanta 4
tizrawt 4
tarwa-s 4
ici 4
d-neṭqen 4
fezzan 4
muḥammed 4
lɛelma 4
revue 4
ffren 4
temsaman 4
adal 4
elizabeth 4
tafsirt 4
yemmugren 4
umecwar 4
fer 4
ugur-a 4
d-greγ 4
asfillet 4
yennerna 4
nerfed 4
besaɛud 4
lemɛiwna 4
ameksa 4
slan 4
yettuseman 4
vas 4
ittezzin 4
palais 4
ugeldun 4
ttuγalen 4
dialectes 4
bouira 4
tawafγa 4
assagi 4
amḍiq-aγella 4
izegzawen 4
anda-t 4
mezruy 4
afaylu 4
yerγan 4
ussan-nni 4
royaumes 4
der 4
ttqadaren 4
takebbanit 4
mɛatqa 4
imeγrasen 4
tenḍerr 4
yimezwura 4
lmarruk 4
yesli 4
taru 4
bbc 4
tafaska 4
afrique 4
izuγar 4
texser 4
tyita 4
amezyan 4
saɛda 4
institute 4
isebtar 4
yimesli 4
tebburt 4
t-yenγan 4
sfulluḥen 4
yezri 4
ilegwaḍen 4
tihawt 4
laɛnaya 4
ffγent 4
tsewwiqt 4
montenegro 4
jpg 4
imγi 4
tamuggit 4
ussnanen 4
ḥazen 4
leqdic-nsen 4
tiγmert 4
tmenγiwt 4
qsentina 4
wanzi 4
amiens 4
ṛuḥen 4
time 4
tufa-d 4
yeqimen 4
uneγmas 4
larebεa 4
yines 4
tirmitin 4
telmed 4
imucaɛen 4
tanaḍt 4
imessanen 4
amadaγ 4
éditions 4
tesnilest 4
jellil 4
tasreγta 4
maṛṛa 4
lhal 4
stukulm 4
yelfa-d 4
masidunya 4
iwmi 4
golfe 4
university 4
tuzgad 4
lɛib 4
inin 4
tasnawit 4
icuban 4
denis 4
lεerc 4
taneγlaft 4
γursen 4
tafekka-s 4
temple 4
mnayel 4
me 4
abernus 4
maggren 4
tamemt 4
thumb 4
chaker 4
seri 4
buḍyaf 4
talliyin 4
saturn 4
d-tekka 4
tenna 4
tza 4
wass-n 4
cnun 4
ttemslayen 4
tsaɛtin 4
tuddert 4
seine-saint-denis 4
yaman 4
tiqdimin 4
tewwi-t 4
tlaṭinit 4
qwan 4
yefra 4
takanna 4
awras 4
tafrara 4
rnuγ 4
tament 4
yinelmaden-is 4
ṭṭfen-t 4
lemqam 4
iwet 4
waɛmar 4
d-yelha 4
amenṭag 4
abaγur 4
umulli 4
tmaneγt 4
abderaḥman 4
ihudden 4
imi-s 4
issen 4
γect 4
wexxam-is 4
leεwayed 4
ttejṛa 4
udbil 4
ukamyun 4
imejjayen 4
terbaɛt-agi 4
lluzinat 4
ifukk 4
dav 4
neqqen 4
tiqit 4
timettanin 4
taspnyolit 4
tbessa 4
lǧameɛ 4
tajaddit 4
mondiale 4
fantasy 4
ulmad 4
recherche 4
simi 4
aḍḍan 4
yebγa 4
mlalen-d 4
nezzah 4
ufaylu 4
ircam 4
tkarḍa 4
neqqim 4
lezdayer 4
di-s 4
lǧama 4
umeγnas 4
said 4
t-yettwalin 4
argul 4
azzuz 4
tussnakt 4
amni 4
zimbabwe 4
inni 4
yesεi 4
tawtilt 4
tizya-s 4
iḍefren 4
buda 4
yid-sent 4
tcequft 4
ibeddlen 4
grammy 4
t-naf 4
indépendante 4
uqader 4
yid-k 4
ussebded 4
ṭṭaq 4
iɛiwen 4
tt-rren 4
isbed 4
adn 4
zik-is 4
uwenbir 4
tarudant 4
nadia 4
zzint-as-d 4
yiflisen 4
tamarikant 4
akraren 4
examens 4
ciṭṭ 4
teǧǧa 4
timenza 4
ṭṭerf 4
seɛɛun 4
connecticut 4
yeggan 4
iruh 4
imjuhad 4
yimasiḥiyen 4
azelmaḍ 4
ddheb 4
telliḍ 4
cirta 4
cix 4
tigu 4
igerdan-nsen 4
qqiment 4
asugnan 4
gestion 4
uneggaru 4
yettaweḍ 4
azem 4
d-yufrar 4
yusad 4
zgant 4
yiseggasen-agi 4
min 4
tebna-d 4
tɛawed 4
tafarsit 4
tegzirt-agi 4
ɛacen 4
d-yerbeḥ 4
leɛmeṛ 4
akiwan 4
yulin 4
tafelsuft 4
icna-d 4
d-yexleq 4
kifkif 4
moussa 4
emmanuel 4
tektabin 4
swadda 4
tḥudd 4
beclul 4
yeswiren 4
yigarawen 4
ččurent 4
munich 4
wakk-a 4
ttejṛiba 4
aqerru-s 4
tmettant-is 4
tmurt-iw 4
ticcert 4
sεun 4
lublin 4
melyun 4
institutions 4
iddu 4
ubeḥri 4
qsemṭina 4
amsterdam 4
chaque 4
d-yeγlin 4
sus-mast 4
ssut 4
benjdid 4
tuweḍ 4
isufar 4
γzan 4
bezzaf 4
dakar 4
tcelḥit 4
igellilen 4
yeṭṭuqqten 4
amecwar-nnes 4
rsen 4
fad 4
tafem 4
aɛṛab 4
ccγel-is 4
nicaragua 4
lǧal 4
cia 4
aql-it 4
yedda-d 4
tteffren 4
tfransist 4
timawit 4
imḍebren 4
yeqquren 4
ssifa 4
kemmel 4
tawezlant 4
ufin 4
illa-d 4
yessan 4
uland 4
ttasfift 4
tis-snat 4
azedgan 4
tessers 4
fus 4
anebdu 4
immeslay 4
buselam 4
tedyant 4
yejbed 4
tecba 4
anẓul-agmuḍ 4
friḥa 4
vi 4
d-taddart 4
aderyati 4
tisdawiyin 4
tasengama 4
tasnawalt 4
lisbun 4
menɛen 4
amensay 4
s-yeqqar 4
yecnu 4
yessekles 4
tanegmuḍt 4
γezzifen 4
temdint-nni 4
ager 4
dublin 4
yiḍ-nni 4
yiḍebsiyen 4
yenker 4
messaoudi 4
lehlak 4
tiγbula 4
lḥeṛs 4
macca 4
lḥasun 4
niten 4
sudan 4
d-ǧǧan 4
prix 4
long 4
inekren 4
w-ass 4
txencelt 4
tt-icuban 4
cruz 4
lmendad 4
uγella 4
middn 4
imezdaγen-nnes 4
anta 4
wayi 4
tesaa 4
germah 4
leɛṛac 4
tenγa 4
ablug 4
yismal 4
lamir 4
fe 4
ssersen 4
issali 4
tamensayt 4
lecγal 4
tcennayin 4
uḍnen 4
kṛad 4
africaine 4
lemtel 4
usbeddi 4
timunent-is 4
teγra 4
iddew 4
rrbeḥ 4
unnig 4
lxemsa 4
lluzin 4
ibed 4
abeṭṭu 4
ferqen 4
zemrent 4
unuγen 4
d-bdant 4
onu 4
s-yenna 4
adalen 4
ḍabi 4
is-d 4
ilsanen 4
taγuri 4
itargiyen 4
lfeṛḥ 4
yazid 4
tamawin 4
ayenni 4
tineqlin 4
txedmeḍ 4
inig 4
reglen 4
d-ssidren 4
yefreq 4
yissin 4
warraw-nsen 4
yeγzer 4
district 4
amalas 4
yimensi 4
ttemcabin 4
iɛeṭṭafen 4
yiḍes 4
nnejmaɛen 4
akayad 4
ussegwas 4
tamanaγt-ines 4
imenγiyen 4
nader 4
m² 4
ilemmed 4
andi 4
ini-s 4
blaise 4
tadrest 4
usarir 4
injil 4
seɛdi 4
taγremt 4
amezwaru-ines 4
taramit 4
ukessar 4
tmelyant 4
nwarra 4
meẓẓi 4
ucebbak 4
tsunami 4
yemrigen 4
anavaḍ 4
nel 4
illinois 4
nedder 4
tbatent 4
azuran 4
filippin 4
lekmal-nnes 4
iɛeṭel 4
iḥrez 4
ussenker 4
dheb 4
zman 4
ifγed 4
anrar 4
tuγac 4
atargi 4
feuilles 4
amastan 4
fessus 4
tasaḥlit 4
yessaram 4
hauts-de-france 4
ameqwran 4
tidikelt 4
yettekkay 4
tmuγli 4
d-yennulfa 4
poitou-charentes 4
tarbaɛt-agi 4
سيدي 4
yexleq 4
weqbu 4
tmeddurt-is 4
timgad 4
usqamu 4
couleurs 4
weḥdes 4
yeffeγ 4
isen 4
asfugel 4
teddart 4
yegget 4
tallit-nnes 4
yufa-t 4
ccreɛ 4
poitiers 4
llsisan 4
yesselmaden 4
yettunefken 3
alemmi 3
algèbre 3
nenni 3
imdukal 3
tyaziṭ 3
aγrum-is 3
udelta-s 3
gan-as 3
azewwaγ 3
anzaḍ 3
maḥbub 3
yetmeslayen 3
utiliskup 3
wemkan-nnes 3
tmunaγ 3
t-ixelqen 3
tasureft 3
yeswa 3
lyaman 3
isseqdacen 3
tasertant 3
yewɛer 3
as-d-yerr 3
temẓin 3
collection 3
inǧil 3
abeḥri 3
tiṛmisin 3
sawalen-tt 3
plusieurs 3
ublug 3
tezweǧ 3
werkad 3
ue 3
tellul 3
sliγ 3
yumnen 3
imzdaγ 3
xedment 3
tḥemmel 3
fadma 3
merrakec 3
histoire 3
rzu 3
combat 3
buberaga 3
fakken 3
police 3
d-yemmugen 3
iwin 3
hôtel 3
tuwey-d 3
asarug 3
culturelles 3
ttarran-as 3
neǧǧ 3
d-yennulfan 3
wakal-is 3
iẓewren 3
books 3
وادي 3
hca 3
asirili 3
yetwexdem 3
tagdudant 3
fkan-asen 3
serbi 3
autonomes 3
mzab 3
yeccnan 3
n'a 3
wungalen-nnes 3
ttwasnen 3
alemma 3
préfecture 3
tγerdayt 3
amelyun 3
tagrut 3
weskar 3
wenẓul-agmuḍ 3
tessawal 3
tezrirt 3
yettwasenen 3
tewriqin 3
source 3
alliance 3
yinzan 3
icenga 3
ixef-is 3
teww 3
itebɛen 3
amezruy-is 3
menguellat 3
temlilt 3
ttṣeggiden 3
lward 3
tuγaleḍ 3
d-ttaẓen 3
timektit 3
historia 3
franca 3
d-ffγent 3
ččan 3
bessif 3
amgerrad 3
iγef 3
taẓallit 3
yibeɛɛac 3
tuγal-ed 3
voyelles 3
nouveau 3
cazelles 3
tcequfin 3
und 3
timeqṛanin 3
ucriken 3
tusligt 3
laqbayel 3
yeṛwa 3
azrou 3
yela 3
lsas-is 3
sedqa 3
lεeṛc 3
aneggal 3
rbaṭ-sla-qniṭra 3
yecɛel 3
tettimγur 3
minoritaires 3
d-tennulfa 3
teglimt 3
takanadit 3
iεerḍen 3
tadinastit 3
yeggar 3
wrida 3
amara 3
hamza 3
lexique 3
tt-naf 3
ulemmas 3
ttagaden 3
terr 3
iɛawnen 3
igmaḍ 3
leṣwat 3
muzambik 3
amrabeḍ 3
amnukal 3
ṭṛad 3
zint-as-d 3
tesla 3
tdukla 3
très 3
unavaḍ 3
sselḥun 3
nbeddel 3
yesawalen 3
tettaweḍ 3
yerẓan 3
yisafen 3
devenir 3
buǧember 3
llakul 3
d-ttawin 3
yessawel-d 3
yettgen 3
iḥudd-it-id 3
merrakec-asfi 3
yufrar-d 3
uγalen 3
leγwaṭ 3
gguman 3
ilatiniyen 3
blanche 3
afares 3
ugafa-amalu 3
usentel 3
imu 3
t-iẓer 3
tiqcicin 3
yiḥricen 3
ameγradan 3
ولاية 3
tamezwaru 3
tettemcabi 3
yimawen 3
dduḥ 3
asegt 3
tamasayt 3
champs 3
raymond 3
aucun 3
s-yefka 3
yigumma 3
abdelkader 3
lḥers 3
azbu 3
isunad 3
warsnis 3
justice 3
yerri 3
frank 3
cṭember 3
i-d-ilulen 3
tecɛel 3
tekki 3
d-yekkaten 3
xelfun 3
tγermiwin 3
surface 3
tidiganin 3
tervaɛt 3
yill 3
ffγen 3
fonction 3
wunuγen 3
taflist-nsen 3
isken 3
yemγi 3
tsaɛet 3
tasa-s 3
anime 3
izwal 3
yewwet-d 3
sseba 3
wallaγ 3
yettekkin 3
muqqren 3
lɛinṣer 3
kcem 3
bulɛid 3
ustṛalya 3
tusniwin 3
tusut 3
liens 3
fkiγ 3
étude 3
yis-sent 3
ibeckiḍen 3
tasedkalt 3
d-zzin 3
nzemmer 3
dernier 3
jerusalem 3
γuct 3
tunis 3
tayed 3
saha 3
malawi 3
xeldun 3
wakal-nnes 3
xwanten 3
tamazγa 3
as-fkan 3
d-tamurt 3
tuttra 3
addalen 3
tiwizi 3
imeḥbas 3
lhiba 3
tacinwat 3
maison-carrée 3
bergan 3
iγes 3
i-ten 3
wissin 3
wanwa 3
amguran 3
uɛemran 3
akatar 3
prag 3
ix 3
tuggta 3
twat 3
services 3
yeẓnagen 3
naff 3
iferdisen 3
mathématicien 3
wiyes 3
lqrun 3
l'amour 3
ssuffγen 3
awid 3
imsuḥal 3
wajjed 3
ilmend-is 3
traditionnelle 3
ḥader 3
tamart 3
wegles 3
lmeḥna 3
yewten 3
slid 3
marrakech 3
salle 3
lehdur 3
tijirmaniyin 3
ikukra 3
grands 3
yettalasen 3
d-yurwen 3
aseγẓan 3
yesdukkel 3
sujet 3
qim 3
ikat 3
tawilat 3
teγri 3
ites 3
nasa 3
d-yelhu 3
binin 3
yettaken 3
qublen 3
lbenna 3
nutenti 3
tagiṭart 3
axuxi 3
teggen 3
imir-en 3
arazen 3
ttewḥacen-ten 3
d-yufan 3
ɛeddant 3
ggulen 3
iceṭṭiḍen 3
aqarid 3
poète 3
asufeγ 3
ẓiden 3
heggan 3
yiwin 3
imsellḥen 3
yersen 3
timeẓliyin 3
d-yekcem 3
taserdasit 3
weksum 3
imsulta 3
yussad 3
tesmilt 3
uzarmezruy 3
tajaponit 3
tefr'ensist 3
unagraw-a 3
île-de-france 3
ciṭṭuḥ 3
tlemast 3
wazal-nsen 3
lerbaḥ 3
buyiγes 3
yisallen 3
awi 3
lhawa 3
ayallas 3
d-yussan 3
tizemrin 3
philippe 3
ccetla-nsen 3
tiliwa 3
kab 3
igiten 3
irruḥ 3
lisa 3
d-netta 3
γlin 3
teḥma 3
idisan 3
lbaburat 3
uhric 3
tmuγliwin 3
yesserfan 3
yiceṭṭiḍen 3
lejdud-nneγ 3
wwet 3
teflest 3
ibdan 3
statistiques 3
influence 3
musṭafa 3
cwal 3
uṛufi 3
yettaγen 3
tejja 3
yettban-d 3
tebded 3
tezweγ 3
yemmugred 3
larry 3
ususru 3
yihendiyen 3
kilu 3
tamazirt 3
at'as 3
tilelli-nsen 3
rhein 3
taγect 3
aqadum 3
tilemẓit 3
littéraire 3
yeskles 3
tibeṛṛaniyin 3
titre 3
الدين 3
neqbil 3
tugar 3
nadin 3
duǧember 3
cfu 3
llun-is 3
yettaf 3
yaɛnan 3
issufeγ 3
umaṭaf 3
rran-tt 3
tezdi 3
tibantutin 3
teftilin 3
tiḥkayin 3
ch 3
d-lewwin 3
umenuγ 3
tuṛufiyin 3
yisem-agi 3
gabriel 3
ameṛkanti 3
tilγa 3
lkuṛaj 3
yarir 3
ibeɛden 3
tibbura 3
benian 3
anda-tt 3
wilaya 3
d'eau 3
isemawen 3
umalway 3
iḍes 3
ṣṣenf-agi 3
rriḥa 3
almad-is 3
tettunefk 3
tarwiḥt 3
ttarunt 3
ttekkant 3
anamek-nnes 3
yerra-as-d 3
yettxemmim 3
julien 3
asemmaḍ 3
temzi-s 3
yexlan 3
yesker 3
ameqqwran 3
yiḍan 3
axeṣṣar 3
yuzga-d 3
idegger 3
ttasen-d 3
anaggal 3
tesnudert 3
senbazuru 3
teṭṭef-it 3
wuḍan 3
blogspot 3
tameṛkantit 3
ṭṭfen-tt 3
laxart 3
tutlayin-a 3
vittorio 3
irem 3
m-id 3
leḥmala 3
bnan-as 3
iwwet 3
nz 3
tlelli-nsen 3
aγaram 3
tfulmant 3
cfan 3
hudden 3
igurdan 3
iγef-nnes 3
tici 3
taseddawit 3
ssqef 3
ihewwaren 3
idelsan 3
ttawḍen 3
yeḍru 3
ibadisen 3
iḥettem 3
yaḥya 3
ameddaḥ 3
yesnulfa 3
ṭṭradat 3
iman-nsent 3
taγtest 3
tigzirin-a 3
yefken 3
ttnadiγ 3
nγant 3
ifaz 3
izaden 3
yelḥan 3
tettaru 3
imeddukkal 3
σisa 3
vatican 3
yeḍfar 3
laboratoire 3
nteddu 3
wazalen-is 3
leɛwayed 3
irewlen 3
populaires 3
gezmen 3
ṭṭelyan 3
tban-d 3
yegrigiyen 3
encyclopédie 3
εlayen 3
tifranin 3
inegren 3
leɛmer 3
umesli 3
aknoun 3
ukkuẓ 3
xemsin 3
taγiwant-a 3
ten-yernu 3
tamettant-is 3
deɛwessu 3
ineγmasen 3
tigrawin 3
ilaq-as 3
ḥerzent 3
brown 3
qqnent 3
cinwa 3
iffasen 3
irebḥen 3
république 3
lulaγ 3
haqbaylit 3
principes 3
ḥudden-t-id 3
uṛufiyen 3
yefrax 3
dreɛ 3
ghas 3
tallit-a 3
xali-s 3
d-afen 3
afus-im 3
ifadden-is 3
lemḥibba 3
sγuṛ 3
yimedyaten 3
iwezlanen 3
ttɛawaden 3
uγiwel 3
yewhem 3
nneyya 3
yettamnen 3
tamaṣrit 3
usγar 3
mort 3
tmennaṭ 3
ṣubben 3
ečč 3
tamaceγt 3
iɛsekriyen 3
d-lhan 3
tamdint-agi 3
tizrawin 3
économiques 3
uẓru 3
tiferkit 3
ssawḍent 3
tespanyulit 3
imdanen-ines 3
d-yeqqel 3
yeḥbis 3
sept 3
ittezzi 3
d-teffγent 3
lbaylek 3
tinelmadin 3
d-imaziγen 3
d-yezzi 3
yezzin 3
tevda 3
déclarer 3
timiwa-yagi 3
berthozène 3
imenγan 3
n'y 3
imirenni 3
zuren 3
tetwilt 3
yehwan 3
tetteka 3
iḍelli-nni 3
nss 3
taγezfant 3
yesbedd-d 3
arabique 3
t-sseqdacen 3
timidi 3
teggra-d 3
hungri 3
lakhdar 3
cherif 3
yekkcem 3
amḍal 3
aql-aγ 3
aẓerwal 3
lbeɛd 3
tayland 3
d-ilehhun 3
ttriḥ 3
uɛekkaz 3
siècle 3
iγallen-is 3
yisuvyatiyen 3
tceqquft 3
yinaẓuren 3
yeṭṭef-itt 3
slant 3
aɛetmani 3
europa 3
aselḥu 3
amcum 3
uxemmem 3
tewwet 3
acrik 3
axelxal 3
later-nsen 3
d-yesker 3
ubrid-is 3
isurifen 3
ṭanja-tiṭṭawin-lḥusima 3
d-isnulfan 3
ccah 3
nunber 3
liman 3
tigejdanin 3
lerwaḥ 3
teswa 3
timeγriwin 3
qayli 3
iγalen 3
daɛwessu 3
dumran 3
unnar 3
teqqim-d 3
now 3
yernad 3
ademdam 3
izuran-is 3
iɛeṭṭel 3
aqjun 3
yeḥka 3
tettwabna 3
yessawaḍ 3
attaquant 3
temurt 3
tibḥirin 3
negzi 3
tkadimit 3
ten-naru 3
wayyen 3
yicenwiyen 3
tefki 3
sport 3
neddem-d 3
lqima 3
ttruḥun 3
umenγi 3
iṛumanen 3
yeḥma 3
khaled 3
syenna 3
tamɛayt 3
lwaḥi 3
tmizar 3
tdayṛa 3
wassif 3
serγen 3
sbedden-t-id 3
arnu 3
timadwanin 3
lqaḍi 3
dawud 3
yettwajerḥen 3
yezra 3
rebɛin 3
haten-aya 3
ussan-is 3
yisantimitren 3
d-taf 3
yarnan 3
yiγerfan 3
ageffur 3
tt-yeg 3
nezfen 3
ijdiden 3
iqqaren 3
male 3
yixef 3
ensemble 3
imitriyen 3
assaγen 3
tezwar 3
ata 3
yura-tt 3
amqun 3
tejhed 3
taflest 3
lqut 3
yettaṭṭaf 3
aseqdac 3
ammuden 3
d-teḍra 3
uzezzu 3
wayla-s 3
volume 3
armée 3
uṭṭawa-ḥull 3
azday 3
ayla-s 3
grigurian 3
tegmi 3
iduklen 3
jemɛen 3
wwint 3
tewwed 3
umnen 3
aleqqaq 3
gmina 3
agummu 3
lejdud-nsen 3
ifγen 3
nil 3
ifer 3
mathématique 3
tisselbi 3
taṭelyanit 3
msefhament 3
iḍrisen-is 3
nesseqdec 3
illin 3
tameγnast 3
asselmed 3
taγiwant-agi 3
teǧǧ 3
structures 3
agwad 3
tanaẓurt 3
iceγben 3
tejmilt 3
entreprise 3
agama 3
yecc 3
tt-ttaǧǧan 3
amarikan 3
tamsilt 3
lewṣayat 3
lxiṛ 3
suite 3
tellam 3
asiwel 3
matin 3
ugelid 3
umassan 3
baha 3
tessuffeγ-it-id 3
or 3
menad 3
ten-icewwlen 3
yetturaren 3
ttwaxedment 3
yemseḍfaren 3
sγur-s 3
ingliz 3
wedlisen 3
t-inγan 3
d'ivoire 3
berbères 3
yettnaγ 3
tawant 3
ff 3
d-xelqen 3
yimi-s 3
lmuhub 3
noufel 3
slam 3
program 3
tririt 3
tameslayt-a 3
teqsiṭ 3
tseddi 3
d-usan 3
tfarsit 3
iseggasen-aya 3
wammasen 3
iγlifen 3
awiγ 3
labaɛda 3
abdelmumen 3
links 3
tamella 3
lebḥar 3
tuda 3
idles-is 3
ugelmim-a 3
data 3
uglim 3
heddren 3
leḥyuḍ 3
yerγa 3
beḍḍu 3
yeṭṭafar 3
yegan 3
tasgilt 3
yettargu 3
l'on 3
continents 3
uγyul 3
iqebbel 3
iγerfanen 3
wembaddel 3
tahulandit 3
usaran 3
tajewwaqt 3
ssufγen 3
isɛeda 3
d-nufa 3
colonisation 3
tiγiwanin 3
issufγ-ed 3
tebnu 3
tafrensit 3
public 3
tamezyant 3
wefrux 3
fkan-t 3
paolo 3
petit 3
jardins 3
tekka-d 3
nezmar 3
akd 3
wedris 3
taqbaylit-is 3
tadyant-a 3
amecṭuh 3
ren 3
mary 3
wemni 3
grenoble 3
taqendurt 3
inmezrayen 3
temnaṭṭ 3
ⴰⵜ 3
weɛli 3
ciṭ 3
telmeẓyin 3
tettnerni 3
iffγ-d 3
iẓekwan 3
iwulem 3
francs 3
jeunesse 3
ɛasseγ 3
d-yeldi 3
county 3
yeḥyaten 3
d-iteffeγ 3
ad-t 3
nurwij 3
aslali 3
bouzeboudja 3
tettwaḥbes 3
nnfeɛ 3
infobox 3
belgique 3
tintaliwin 3
byilurusya 3
tama-nneγ 3
teswiɛin 3
izumal 3
yefγed 3
tesbedd-d 3
autonome 3
ethnologie 3
mizrana 3
culturel 3
yitran 3
ibawen 3
tusad 3
γriγ 3
ddur 3
yekcem-d 3
tmacinin 3
lǧetta 3
gyes 3
tettekkes 3
yettwaḥeqren 3
itteg-d 3
zedmen 3
amagrad-a 3
d-yesskanen 3
uqacuc 3
ttimγuren 3
yemmeγ 3
lefjer 3
nekcem 3
lexlawi 3
neţţu 3
voir 3
meslayen-tt 3
ujebbuj 3
ijnaten 3
ilemẓyen 3
d-abugaṭu 3
gulf 3
izdayen 3
tartar 3
taγect-is 3
batna 3
agzul 3
dit 3
wakalen 3
d-yemlal 3
fontaine 3
yeɛreḍ 3
yennan 3
tazeggaγt 3
aẓiyen 3
print 3
production 3
imuzzag 3
γilen 3
banen-d 3
yegrawen 3
nzan 3
yiseggasen-nni 3
alfred 3
nsel 3
tsemhuyt 3
iwanaken 3
yexlef-it-id 3
webrid-is 3
d-ttmeslayen 3
teqṣebt 3
ussuffeγ 3
tijmilin 3
brizil 3
tagrigt 3
assn 3
tasenbert 3
chelems 3
foundation 3
d-tefka 3
barbarie 3
all 3
zerwen 3
tɛedda 3
amaẓuẓ 3
corps 3
ticett-is 3
bnun 3
lwahid 3
umawal 3
danger 3
ersen 3
yekksen 3
acu-tt 3
yeqqim-ed 3
iba 3
yigenwan 3
atraren 3
atig 3
yettasen 3
lewhayem 3
ttwalin-tt 3
lqay 3
tmaceγt 3
zedγent 3
wadeg-aγella 3
d-igan 3
yettwakkes 3
land 3
tuccit 3
d-ijemmlen 3
taγaḍt 3
ihadren 3
tamurt-nneγ 3
urti 3
awards 3
d-gran 3
tettawin 3
sinigal 3
mi-d 3
tafekka-nsen 3
ideflawen 3
timunnent-is 3
asnas 3
rnan-d 3
d-xedmen 3
jemmɛen 3
tamedyezt 3
iḥuzan 3
zdaxel 3
lmektub 3
temkarḍit 3
tisura 3
takadimit 3
pluriel 3
yessewjed 3
yefrun 3
alman 3
dumen 3
journal 3
liberya 3
sbaḥ 3
tamedyazt-is 3
saison 3
ɛetman 3
mosku 3
tefka-yas 3
temnaṭ-agi 3
laɛmer-is 3
uḥdiq 3
d-tutlayt 3
tγawsa-nni 3
tlisa-s 3
tebγest 3
idmaren-is 3
tessuddes 3
d-snekren 3
artiodactyles 3
tv 3
uẓar-is 3
ilemden 3
الله 3
yessekren 3
tesrit 3
iferɛunen 3
babas 3
ṣṣifa-s 3
iččur 3
ṛwan 3
banda 3
ucebbeḥ 3
buɛraba 3
الجزائر 3
khemis 3
tussa-d 3
yeddukel 3
weswir 3
groupe 3
izemran 3
tettuḍ 3
alla 3
sḍiset 3
wwten 3
idetti 3
أبو 3
afransi 3
agatu 3
tiddin 3
ddu 3
quqaz 3
γur-wen 3
arrawen 3
yenna-yasen 3
d-yaf 3
arkun 3
abrid-nsen 3
yeḍmen 3
amaẓrag 3
aseggi 3
uksar 3
lɛemr-is 3
umusnaw 3
yesdari 3
yahoo 3
amerkanti 3
zzhu 3
port 3
tanelmadt 3
takbabt-is 3
wayne 3
twalin 3
amur-iw 3
zwaǧ 3
aṭalyani 3
qbayli 3
asseqdec 3
anezwu 3
agelmaḍ 3
weltmas 3
teqseḥ 3
ucengu 3
azayku 3
tgerfa 3
lxeḍra 3
keccmen-d 3
d-yerna 3
ttxemmimeγ 3
tatupunymit 3
tisfifin 3
amdiq 3
issin 3
t-yejjan 3
tadeblant 3
ẓẓayen 3
ifnayen 3
syn 3
imahilen-is 3
teẓriḍ 3
comédien 3
atelli 3
tent-yettmeslayen 3
unaddal 3
wemkan-nni 3
citṭ 3
facto 3
attili 3
zzwaǧ 3
d-kkan 3
timmunent 3
uslelli 3
afraq 3
llaẓ 3
unyir 3
yewwi-tt 3
turk 3
tasγent 3
tγawla 3
cṛif 3
assirem 3
dimacq 3
sufγed 3
ticebḥanin 3
yisennanen 3
unnerni 3
strasbourg 3
tiremt 3
lmeɛna 3
yisem-nnes 3
iεedda-d 3
d-yennan 3
douar 3
asen-yefk 3
paysages 3
tallat 3
yufrar 3
teglizt 3
buǧemɛa 3
rif 3
ufran 3
tiwtilin 3
wawal-a 3
uwḍen 3
iwen 3
tefka-as 3
uγur 3
unamek-is 3
rome 3
tgerrez 3
dat 3
iwet-d 3
leḥwal 3
antiquité 3
inefɛen 3
tsartit 3
civile 3
ugarent 3
usileγ 3
renaissance 3
deffir-sen 3
teccur 3
brunswick 3
florida 3
lemleḥ 3
kren 3
weḍris 3
tamagdayt 3
d-ṭṭfen 3
sɛiγ 3
γdames 3
tiquranin 3
nam 3
tenfust 3
zewwaγen 3
wexxam-nni 3
w-azal-is 3
agujil 3
tettawi-d 3
temlal 3
allalen 3
kahina 3
d-tekker 3
isεa 3
akkd 3
tallit-is 3
kkant-d 3
uγrum 3
bulifa 3
tḍerru 3
tiẓuryin 3
tazmert-is 3
yecrek 3
tenfalit 3
tettnadi 3
rue 3
ifasen 3
puławy 3
imnekcamen 3
izgan 3
tγiwant-agi 3
d-yaweḍ 3
louise 3
claudius 3
aẓidan 3
aγezzfan 3
rachid 3
wwin-tt 3
usegas 3
axlif 3
tettikki 3
ameṛṛuk 3
argaz-is 3
tabburt 3
dieu 3
chorfa 3
ifiniqiyen 3
d-amyurar 3
tezwart 3
wasif-nni 3
ixemmem 3
tcudd 3
usligen 3
iɛawen 3
ugdud-is 3
imezdaγen-ines 3
weγrum 3
naït-zerrad 3
yuγ-d 3
recensement 3
d-yesnulfu 3
ḥala 3
yesteqsay 3
isersen 3
taγdemt 3
tagejdant 3
yigen 3
tallelt 3
ttl 3
aqeddem 3
anwi 3
tmezwura 3
asenselkim 3
tγara 3
igemmamen 3
wegmam-a 3
dr 3
zemlen 3
taktrist 3
anyir 3
wallal 3
yuklalen 3
ttwagent 3
seqdacent 3
tidwilin 3
ittwasen 3
tmacahut 3
tawaγit 3
tissirt 3
tineggura-ya 3
leɛtab 3
timeslayin-a 3
teffeγ 3
tleḥḥu 3
sɛu 3
